{
  "options": {
    "autoUpdate": 60000,
    "title": "External folders",
    "checkboxes": true,
    "highLightNew": false
  },
  "columns": [{
    "id": "entity_id",
    "hidden": true,
    "primary": true
  }, {
    "id": "mimeType",
    "text": false,
    "converter": "mimeIconConverter",
    "converterArgs": {
      "niceMimeColumn": "nice_mime_type"
    },
    "dataStyle": {
      "width": "40px"
    },
    "style": {
      "width": "40px"
    }
  }, {
    "id": "name",
    "text": "Title",
    "href": {
      "type": "folder",
      "params": {
        "id": "entity_id"
      }
    },
    "sortable": true
  }, {
    "id": "parent_id",
    "hidden": true
  }, {
    "id": "parent_name",
    "text": "Parent directory",
    "href": {
      "type": "folder",
      "params": {
        "id": "parent_id"
      }
    }
  }, {
    "id": "nice_mime_type",
    "hidden": true
  }, {
    "id": "created_by_id",
    "hidden": true
  }, {
    "id": "fullName",
    "text": "Owner",
    "converter": "userWithEmail",
    "converterArgs": {
      "userIdColumn": "created_by_id",
      "emailColumn": "primaryEmail"
    },
    "sortable": true
  }, {
    "id": "primaryEmail",
    "hidden": true
  }, {
    "id": "created_at",
    "text": "Created",
    "format": "time",
    "sortable": true
  }, {
    "id": "modified_at",
    "text": "Modified",
    "format": "time",
    "sortable": true
  }]
}