{
  "options": {
    "autoUpdate": 60000,
    "title": "Total users",
    "checkboxes": true,
    "highLightNew": false
  },
  "columns": [{
    "id": "entity_id",
    "hidden": true,
    "primary": true
  }, {
    "id": "avatar_url",
    "text": false,
    "converter": "userImageConverter",
    "dataStyle": {
      "width": "40px"
    }
  }, {
    "id": "name",
    "text": "Name",
    "sortable": {
      "original": true
    },
    "converter": "userConverter",
    "converterArgs": {
      "id": "entity_id"
    }
  }, {
    "id": "login",
    "text": "Email",
    "sortable": true
  }, {
    "id": "last_event_time",
    "text": "Last activity",
    "format": "time",
    "sortable": true
  }]
}