{
  "widgets": [{
    "type": "meta-info",
    "logic": {
      "name": "deploymentStatusLogic",
      "updateTick": null
    },
    "size": "col-lg-6 col-md-12 col-sm-12 col-xs-12",
    "class": "light high-light-new medium-icons",
    "wrapper": {
      "type": "widget-panel",
      "title": "Deployment Status",
      "class": "light white-body white-header"
    },
    "pair": {
      "class": "deployment-status"
    }
  }, {
    "type": "data-table",
    "logic": {
      "name": "licensesLogic",
      "updateTick": 60000
    },
    "uuid": "f3f8ed01-89e9-4485-ba21-01bc0b2b114c",
    "size": "col-lg-12 col-md-12 col-sm-12 col-xs-12",
    "class": "light high-light-new medium-icons",
    "wrapper": {
      "type": "widget-panel",
      "title": "Licenses",
      "class": "light white-body white-header no-margin"
    },
    "style": {
      "min-height": "600px"
    },
    "options": {
      "pagesAround": 2,
      "pageSize": 10000000,
      "pagination": {
        "page": 1
      },
      "disableTop": true,
      "forceServerProcessing": false,
      "dropdownHeader": false,
      "defaultOrdering": {
        "columnName": "state",
        "order": "asc"
      }
    },
    "columns": [{
      "id": "name",
      "hidden": true
    },{
      "id": "stack_icon",
      "text": false,
      "converter": "appIconConverter",
      "dataClass": "file-security-app-icon",
      "converterArgs": {
        "isBetaColumn": "is_beta",
        "isExpiredColumn": "isExpired"
      }
    }, {
      "id": "is_beta",
      "hidden": true
    }, {
      "id": "isExpired",
      "hidden": true
    }, {
      "id": "label",
      "text": "Application",
      "sortable": true
    }, {
      "id": "license_info.license_type",
      "text": "License Type",
      "converter": "clickEventConverter",
      "converterArgs": {
        "eventName": "update-license",
        "class": "link-like",
        "attributes": {
          "app": "name"
        }
      },
      "sortable": true
    }, {
      "id": "license_info.expire_at",
      "text": "Expires",
      "converter": "multiConverter",
      "converterArgs": {
        "converters": [{
          "converter": "utcDateOnly",
          "converterArgs": {
            "showFromNow": true
          }
        }, {
          "converter": "clickEventConverter",
          "converterArgs": {
            "eventName": "update-license",
            "class": "link-like",
            "attributes": {
              "app": "name"
            }
          }
        }]
      },
      "sortable": true
    }, {
      "id": "state",
      "text": "Module State",
      "sortable": true
    }]
  }]
}