{
  "options": {
    "autoUpdate": 60000,
    "title": "Files shared with everyone in the company",
    "highLightNew": false
  },
  "columns": [{
    "id": "entity_id",
    "hidden": true,
    "primary": true
  }, {
    "id": "mime_type_string",
    "text": false,
    "converter": "mimeIconConverter",
    "converterArgs": {
      "niceMimeColumn": "nice_mime_type"
    },
    "dataStyle": {
      "width": "40px"
    },
    "style": {
      "width": "40px"
    }
  }, {
    "id": "name",
    "text": "File Name",
    "href": {
      "type": "file",
      "params": {
        "id": "entity_id"
      }
    },
    "sortable": true
  }, {
    "id": "size",
    "text": "Size",
    "format": "bytes",
    "sortable": true
  }, {
    "id": "nice_mime_type",
    "hidden": true
  }, {
    "id": "date_time_created",
    "text": "Created time",
    "format": "time"
  }, {
    "id": "date_time_last_modified",
    "text": "Last modified time",
    "format": "time"
  }]
}