{
  "options": {
    "autoUpdate": 60000,
    "title": "files",
    "checkboxes": true,
    "highLightNew": false,
    "pageTitleHelper": "moduleFoundFiles"
  },
  "columns": [{
    "id": "entity_id",
    "hidden": true,
    "primary": true
  }, {
    "id": "mime_type_string",
    "text": false,
    "converter": "mimeIconConverter",
    "converterArgs": {
      "niceMimeColumn": "nice_mime_type"
    },
    "dataStyle": {
      "width": "40px"
    },
    "style": {
      "width": "40px"
    }
  }, {
    "id": "name",
    "text": "File Name",
    "href": {
      "type": "file",
      "params": {
        "id": "entity_id"
      }
    },
    "sortable": true
  }, {
    "id": "size",
    "text": "Size",
    "format": "bytes",
    "sortable": true
  }, {
    "id": "nice_mime_type",
    "hidden": true
  }, {
    "id": "date_time_created",
    "text": "Created time",
    "format": "time"
  }, {
    "id": "date_time_last_modified",
    "text": "Last modified time",
    "format": "time"
  }, {
    "id": "scan_details",
    "text": "Found by",
    "converter": "opswatFoundByConverter"
  }, {
    "id": "app_info.matches_rules",
    "text": "Matching Rule",
    "converter": "listConverter",
    "converterArgs": {
      "countPostfix": "rules"
    },
    "qsRequire": {
      "app_name": ["dlp_globalvelocity", "dlp_symantec"]
    },
    "sortable": true
  }, {
    "id": "app_info.policy_name",
    "text": "Policy Name",
    "qsRequire": {
      "app_name": "dlp_globalvelocity"
    },
    "sortable": true
  }, {
    "id": "components_amount",
    "text": "Matched components",
    "qsRequire": {
      "app_name": "dlp_globalvelocity"
    },
    "sortable": true
  }, {
    "id": "app_info.suspicious_activities",
    "text": "Suspicious Activities",
    "converter": "listConverter",
    "converterArgs": {
      "countPostfix": "activities",
      "collapseRest": true,
      "expanded": 4
    },
    "qsRequire": {
      "app_name": "checkpoint_te"
    },
    "sortable": true
  }]
}