{
  "options": {
    "autoUpdate": 60000,
    "title": "Solgate Exceptions",
    "checkboxes": true,
    "highLightNew": false,
    "defaultOrdering": {
      "columnName": "added_at",
      "order": "desc"
    },
    "lazyPromiseResolve": true
  },
  "pagination": {},
  "columns": [{
    "id": "added_at",
    "format": "time",
    "text": "Added",
    "class": "one-line-date",
    "sortable": true
  }, {
    "id": "entity_id",
    "text": "Hash",
    "sortable": true,
    "primary": true
  }, {
    "id": "comment",
    "text": "Comment",
    "sortable": true
  }, {
    "id": "added_by",
    "text": "Added By",
    "converter": "avananUserInfoConverter",
    "optional": true,
    "defaultOptional": false
  }]
}