{
  "options": {
    "autoUpdate": 300000,
    "title": "Files",
    "checkboxes": true,
    "highLightNew": false,
    "dataUrl": "file_viewer",
    "facetsUrl": "file_viewer_facets",
    "viewName" : "all"
  },
  "columns": [{
    "id": "entity_id",
    "hidden": true,
    "primary": true
  }, {
    "id": "mimeType",
    "text": false,
    "converter": "mimeIconConverter",
    "converterArgs": {
      "niceMimeColumn": "nice_mime_type"
    },
    "dataStyle": {
      "width": "40px"
    },
    "style": {
      "width": "40px"
    },
    "facetsName": "data_types"
  }, {
    "id": "title",
    "text": "Title",
    "href": {
      "type": "file",
      "params": {
        "id": "entity_id"
      }
    },
    "sortable": true,
    "filter": {
      "name": "filterBy_r_title",
      "type": "text"
    }
  }, {
    "id": "parent_ids",
    "hidden": "true"
  }, {
    "id": "parent_titles",
    "text": "Parent directory",
    "converter": "fileParentsListConverter",
    "optional": true,
    "filter": "filterBy_r_parent_titles"
  }, {
    "id": "quotaBytesUsed",
    "text": "Size",
    "format": "bytes",
    "sortable": {
      "original": true,
      "number": true
    },
    "optional": true
  }, {
    "id": "nice_mime_type",
    "hidden": true
  }, {
    "id": "owner_id",
    "hidden": true
  }, {
    "id": "fullName",
    "text": "Owner",
    "converter": "userWithEmail",
    "converterArgs": {
      "userIdColumn": "owner_id",
      "emailColumn": "primaryEmail"
    },
    "sortable": true,
    "optional": true,
    "filter": "filterBy_r_fullName"
  }, {
    "id": "primaryEmail",
    "hidden": true
  }, {
    "id": "department",
    "text": "Department",
    "sortable": true,
    "optional": true,
    "facetsName": "from_departments"
  }, {
    "id": "ugroups",
    "hidden": true
  }, {
    "id": "ugroups_names",
    "text": "Owner groups",
    "converter": "listConverter",
    "converterArgs": {
      "type": "group",
      "ids": "ugroups",
      "countPostfix": "groups"
    },
    "optional": true,
    "facetsName": "from_groups"
  }, {
    "id": "is_external_user",
    "text": "Is external owner",
    "sortable": true,
    "optional": true,
    "filter": {
      "name": "filterBy_r_is_external_user",
      "type": "boolean"

    }
  }, {
    "id": "share_type",
    "text": "Share type",
    "converter": "googleShareTypeConverter",
    "optional": true,
    "facetsName": "share_types"
  }, {
    "id": "count_users",
    "text": "Users with access",
    "sortable": true,
    "optional": true
  }, {
    "id": "cgroups",
    "hidden": true
  }, {
    "id": "cgroups_names",
    "text": "Collaborators groups",
    "converter": "listConverter",
    "converterArgs": {
      "type": "group",
      "ids": "cgroups",
      "countPostfix": "groups"
    },
    "optional": true,
    "facetsName": "to_groups"
  }, {
    "id": "last_access_time",
    "text": "Last access",
    "format": "time",
    "sortable": true,
    "facetsName": "last_access_time",
    "optional": true
  }, {
    "id": "countries_access",
    "text": "Accessed from",
    "converter": "listConverter",
    "converterArgs": {
      "countPostfix": "countries"
    },
    "facetsName": "countries_access",
    "optional": true
  }],
  "preFilters": {
    "outgoing-public-on-web": {
      "columnsFilters": {
        "filterBy_r_is_external_user": {
          "type": "boolean",
          "data": false
        }
      },
      "facets": {
        "include_share_types": [ "anyone_with_no_link" ]
      }
    },
    "outgoing-anyone-with-link": {
      "columnsFilters": {
        "filterBy_r_is_external_user": {
          "type": "boolean",
          "data": false
        }
      },
      "facets": {
        "include_share_types": [ "anyone_with_link" ]
      }
    },
    "outgoing-shared-with-external": {
      "columnsFilters": {
        "filterBy_r_is_external_user": {
          "type": "boolean",
          "data": false
        }
      },
      "facets": {
        "include_share_types": [ "shared_external" ]
      }
    },
    "incoming-public-on-web": {
      "columnsFilters": {
        "filterBy_r_is_external_user": {
          "type": "boolean",
          "data": true
        }
      },
      "facets": {
        "include_share_types": [ "anyone_with_no_link" ]
      }
    },
    "incoming-anyone-with-link": {
      "columnsFilters": {
        "filterBy_r_is_external_user": {
          "type": "boolean",
          "data": true
        }
      },
      "facets": {
        "include_share_types": [ "anyone_with_link" ]
      }
    },
    "incoming-directly": {
      "columnsFilters": {
        "filterBy_r_is_external_user": {
          "type": "boolean",
          "data": true
        }
      },
      "facets": {
        "exclude_share_types": [ "anyone_with_no_link", "anyone_with_link" ]
      }
    }
  }
}