{
  "options": {
    "autoUpdate": 60000,
    "title": "Externally shared files",
    "checkboxes": true,
    "highLightNew": false
  },
  "columns": [{
    "id": "entity_id",
    "hidden": true,
    "primary": true
  }, {
    "id": "mimeType",
    "text": false,
    "converter": "mimeIconConverter",
    "converterArgs": {
      "niceMimeColumn": "nice_mime_type"
    },
    "dataStyle": {
      "width": "40px"
    },
    "style": {
      "width": "40px"
    }
  }, {
    "id": "title",
    "text": "Title",
    "href": {
      "type": "file",
      "params": {
        "id": "entity_id"
      }
    },
    "sortable": true
  }, {
    "id": "parent_ids",
    "hidden": "true"
  }, {
    "id": "parent_titles",
    "text": "Parent directory",
    "converter": "fileParentsListConverter"
  }, {
    "id": "quotaBytesUsed",
    "text": "Size",
    "format": "bytes",
    "sortable": {
      "original": true,
      "number": true
    }
  }, {
    "id": "nice_mime_type",
    "hidden": true
  }, {
    "id": "owner_id",
    "hidden": true
  }, {
    "id": "fullName",
    "text": "Owner",
    "converter": "userWithEmail",
    "converterArgs": {
      "userIdColumn": "owner_id",
      "emailColumn": "primaryEmail"
    },
    "sortable": true
  }, {
    "id": "primaryEmail",
    "hidden": true
  }, {
    "id": "department",
    "text": "Department",
    "sortable": true
  }, {
    "id": "share_type",
    "text": "Share type"
  }, {
    "id": "users_id",
    "hidden": true
  }, {
    "id": "users_external",
    "hidden": true
  }, {
    "id": "users_names",
    "text": "Users with access",
    "converter": "listConverter",
    "converterArgs": {
      "type": "user",
      "ids": "users_id",
      "isExternal": "users_external",
      "countPostfix": "users"
    },
    "hidden": true
  }, {
    "id": "count_users",
    "text": "Users with access"
  }, {
    "id": "permission_group_ids",
    "hidden": true
  }, {
    "id": "permission_group_names",
    "text": "Groups with access",
    "converter": "listConverter",
    "converterArgs": {
      "type": "group",
      "ids": "permission_group_ids",
      "countPostfix": "groups"
    }
  }]
}