{
  "options": {
    "autoUpdate": 60000,
    "title": "Total users",
    "checkboxes": true,
    "highLightNew": false
  },
  "columns": [{
    "id": "entity_id",
    "hidden": true,
    "primary": true
  }, {
    "id": "photo_url",
    "text": false,
    "converter": "userImageConverter",
    "dataStyle": {
      "width": "40px"
    }
  }, {
    "id": "fullName",
    "text": "Name",
    "sortable": {
      "original": true
    },
    "converter": "userConverter",
    "converterArgs": {
      "id": "entity_id"
    }
  }, {
    "id": "primaryEmail",
    "text": "Email",
    "sortable": true
  }, {
    "id": "department",
    "text": "Department",
    "sortable": true
  }, {
    "id": "lastLoginTime",
    "text": "Last login",
    "format": "time",
    "sortable": true
  }, {
    "id": "suspended",
    "text": "Is Suspended",
    "converter": "suspendedMarkConverter",
    "sortable": true
  }]
}