<?xml version="1.0" encoding="UTF-8"?>
<svg width="200px" height="67px" viewBox="0 0 200 67" version="1.1" xmlns="http://www.w3.org/2000/svg" xmlns:xlink="http://www.w3.org/1999/xlink">
    <!-- Generator: Sketch 41.1 (35376) - http://www.bohemiancoding.com/sketch -->
    <title>print_v1</title>
    <desc>Created with Sketch.</desc>
    <defs></defs>
    <g id="Page-1" stroke="none" stroke-width="1" fill="none" fill-rule="evenodd">
        <g id="print_v1">
            <path d="M6.61157025,66.1157025 C2.96033058,66.1157025 0,63.1553719 0,59.5041322 L0,6.61157025 C0,2.96033058 2.96033058,0 6.61157025,0 L59.5041322,0 C63.1553719,0 66.1157025,2.96033058 66.1157025,6.61157025 L66.1157025,59.5041322 C66.1157025,63.1553719 63.1553719,66.1157025 59.5041322,66.1157025 L6.61157025,66.1157025 Z" id="Fill-1" fill="#005F86"></path>
            <path d="M88.0198347,13.2396694 C86.8024793,13.2396694 85.8247934,12.9842975 85.085124,12.4710744 C84.3487603,11.9900826 83.9809917,11.0115702 83.9809917,9.53636364 C83.9809917,7.94793388 84.3909091,6.88595041 85.2140496,6.34710744 C86.0347107,5.83636364 87.0702479,5.58181818 88.3198347,5.58181818 L98.8280992,5.58181818 L98.8280992,2.68595041 L88.6586777,2.68595041 C86.2768595,2.68595041 84.3487603,3.24132231 82.8735537,4.34545455 C81.3983471,5.45289256 80.6628099,7.19586777 80.6628099,9.5785124 C80.6628099,11.8479339 81.3272727,13.507438 82.661157,14.5561983 C83.9942149,15.6347107 85.7793388,16.1735537 88.0198347,16.1735537 L92.9140496,16.1735537 C94.1049587,16.1735537 95.0702479,16.4289256 95.8066116,16.938843 C96.5719008,17.477686 96.9553719,18.5272727 96.9553719,20.0867769 C96.9553719,21.6198347 96.5165289,22.6694215 95.6355372,23.2371901 C94.7570248,23.8024793 93.7371901,24.0867769 92.5752066,24.0867769 L81.1727273,24.0867769 L81.1727273,26.9793388 L92.4454545,26.9793388 C94.7702479,26.9793388 96.6586777,26.4140496 98.1049587,25.277686 C99.5512397,24.1157025 100.27438,22.3719008 100.27438,20.0446281 C100.27438,17.7198347 99.622314,16.0024793 98.3181818,14.8983471 C96.985124,13.7917355 95.1669421,13.2396694 92.8719008,13.2396694 L88.0198347,13.2396694 Z M124.099174,2.68595041 C123.531405,2.68595041 123.033884,2.85702479 122.610744,3.19917355 C122.156198,3.53801653 121.858678,3.96446281 121.716529,4.47438017 C121.687603,4.58760331 121.629752,4.75867769 121.545455,4.98429752 C120.467769,8.0768595 118.823967,12.7132231 116.609917,18.8950413 C116.554545,19.0661157 116.496694,19.2214876 116.442149,19.3636364 L116.271074,19.8735537 C116.186777,20.131405 116.015702,20.3289256 115.760331,20.4710744 C115.534711,20.6421488 115.276033,20.7256198 114.995868,20.7256198 C114.71157,20.7256198 114.440496,20.6421488 114.185124,20.4710744 C113.959504,20.2991736 113.804132,20.0867769 113.717355,19.831405 C113.661983,19.6636364 113.604132,19.5057851 113.549587,19.3636364 C113.490909,19.1958678 113.433058,19.0371901 113.378512,18.8950413 C112.867769,17.507438 112.428926,16.3 112.057851,15.2793388 C111.660331,14.2305785 111.321488,13.3231405 111.03719,12.5578512 C110.81157,11.961157 110.61157,11.4380165 110.443802,10.9826446 C110.301653,10.5305785 110.159504,10.1338843 110.017355,9.79173554 C109.533058,8.45785124 109.265289,7.70578512 109.207438,7.53801653 C109.12314,7.33801653 108.809917,6.50165289 108.271074,5.02644628 C108.215702,4.8553719 108.128926,4.61652893 108.015702,4.30330579 C107.847934,3.85123967 107.547934,3.46694215 107.124793,3.15371901 C106.698347,2.84380165 106.214876,2.68595041 105.678512,2.68595041 C104.997521,2.68595041 104.416529,2.94132231 103.932231,3.45454545 C103.45124,3.93553719 103.209091,4.51652893 103.209091,5.19752066 L103.209091,27.1082645 L106.272727,27.1082645 L106.272727,16.0024793 C106.272727,15.6347107 106.401653,15.3082645 106.657025,15.0247934 C106.91157,14.7694215 107.238017,14.6438017 107.634711,14.6438017 C107.919008,14.6438017 108.17438,14.7272727 108.4,14.8983471 C108.626446,15.0661157 108.797521,15.2793388 108.909917,15.5347107 C109.733058,17.7495868 110.979339,21.0933884 112.654545,25.5743802 C112.796694,26.0297521 113.065289,26.3975207 113.461983,26.6818182 C113.859504,26.9661157 114.31405,27.1082645 114.824793,27.1082645 C115.334711,27.1082645 115.789256,26.9661157 116.186777,26.6818182 C116.554545,26.3975207 116.822314,26.0297521 116.993388,25.5743802 C117.817355,23.3338843 119.050413,19.9900826 120.696694,15.5347107 C120.809917,15.2793388 120.977686,15.0661157 121.206612,14.8983471 C121.433058,14.7272727 121.687603,14.6438017 121.971901,14.6438017 C122.368595,14.6438017 122.695041,14.7694215 122.950413,15.0247934 C123.204959,15.3082645 123.333884,15.6347107 123.333884,16.0024793 L123.333884,27.1082645 L126.607438,27.1082645 L126.607438,5.19752066 C126.607438,4.51652893 126.368595,3.93553719 125.884298,3.45454545 C125.37438,2.94132231 124.780165,2.68595041 124.099174,2.68595041 Z M142.817355,3.53801653 C142.761983,3.42561983 142.590909,3.25454545 142.306612,3.02809917 C142.052066,2.77272727 141.554545,2.64380165 140.819008,2.64380165 C140.108264,2.64380165 139.614876,2.75702479 139.330579,2.98595041 C139.046281,3.21239669 138.875207,3.38347107 138.820661,3.49586777 C136.719008,8.74214876 133.557851,16.6132231 129.332231,27.1082645 L132.734711,27.1082645 C133.332231,25.6033058 134.22314,23.3760331 135.414876,20.4289256 C135.643802,19.831405 135.995868,18.9404959 136.480165,17.7495868 C136.990083,16.4157025 137.767769,14.4305785 138.820661,11.7933884 L138.98843,11.3669421 C139.046281,11.2247934 139.100826,11.0958678 139.159504,10.9826446 C139.330579,10.5561983 139.527273,10.2049587 139.753719,9.92066116 C140.01157,9.66528926 140.338017,9.53636364 140.734711,9.53636364 C141.132231,9.53636364 141.442149,9.66528926 141.667769,9.92066116 C141.867769,10.146281 142.052066,10.4438017 142.22314,10.8115702 L142.394215,11.3247934 C142.44876,11.4669421 142.507438,11.6214876 142.561983,11.7933884 C142.790909,12.3867769 142.98843,12.9132231 143.159504,13.3652893 C143.327273,13.7917355 143.469421,14.1595041 143.585124,14.4727273 C144.095041,15.7768595 144.350413,16.4421488 144.350413,16.4710744 C144.379339,16.5289256 144.534711,16.9553719 144.818182,17.7495868 L145.838843,20.4289256 C146.406612,21.9041322 147.256198,24.1280992 148.392562,27.1082645 L151.920661,27.1082645 C149.935537,21.946281 146.946281,14.1884298 142.946281,3.83553719 C142.917355,3.80578512 142.88843,3.76446281 142.858678,3.70909091 C142.858678,3.65123967 142.846281,3.59669421 142.817355,3.53801653 Z M169.960331,18.9404959 C169.789256,18.6272727 169.634711,18.3140496 169.492562,18.0041322 C169.350413,17.6619835 169.450413,17.4231405 169.789256,17.2809917 C171.209917,16.7966942 172.330579,16.0446281 173.153719,15.0247934 C173.947934,13.9752066 174.399174,12.6 174.512397,10.8991736 L174.512397,10.1338843 C174.512397,7.72231405 173.805785,5.8785124 172.385124,4.6 C170.938843,3.32479339 168.714876,2.68595041 165.705785,2.68595041 L156.38843,2.68595041 C155.991736,2.68595041 155.652893,2.82809917 155.368595,3.11239669 C155.084298,3.42561983 154.942149,3.78016529 154.942149,4.17768595 L154.942149,27.1082645 L158.303306,27.1082645 L158.303306,6.98264463 C158.332231,6.58595041 158.47438,6.25950413 158.728926,6.00495868 C159.013223,5.74958678 159.339669,5.62396694 159.707438,5.62396694 L165.238017,5.62396694 C167.42314,5.62396694 168.940496,5.96280992 169.789256,6.64380165 C170.642149,7.32479339 171.067769,8.55785124 171.067769,10.3471074 C171.067769,12.3033058 170.6,13.5652893 169.663636,14.1305785 C168.698347,14.6983471 167.22314,14.9826446 165.238017,14.9826446 L163.536364,14.9826446 C163.138843,15.0115702 162.813223,15.1669421 162.557851,15.4504132 C162.27438,15.7347107 162.132231,16.061157 162.132231,16.4289256 C162.132231,16.8256198 162.27438,17.1652893 162.557851,17.4487603 C162.813223,17.7330579 163.138843,17.8752066 163.536364,17.8752066 C164.246281,17.9041322 164.798347,18.0297521 165.195868,18.2595041 C165.563636,18.485124 165.792562,18.6404959 165.87686,18.7272727 L165.919008,18.7694215 C166.144628,18.9950413 166.386777,19.2793388 166.642149,19.6181818 C166.871074,19.931405 167.126446,20.3289256 167.406612,20.8099174 C167.804132,21.4363636 168.159504,21.9752066 168.472727,22.4272727 C168.756198,22.9115702 169.01157,23.3214876 169.23719,23.6603306 C170.090083,25.0512397 170.528926,25.7586777 170.557851,25.7876033 C170.583471,25.8165289 170.854545,26.2561983 171.365289,27.1082645 L175.152066,27.1082645 L170.938843,20.4710744 C170.771074,20.2157025 170.6,19.9446281 170.428926,19.6636364 C170.257851,19.3793388 170.102479,19.1371901 169.960331,18.9404959 Z M179.745455,2.68595041 C180.000826,3.33801653 180.397521,4.30330579 180.93719,5.58181818 L186.424793,5.58181818 C186.822314,5.60743802 187.147934,5.74958678 187.403306,6.00495868 C187.687603,6.28842975 187.828926,6.61487603 187.828926,6.98264463 L187.828926,27.0661157 L191.147934,27.0661157 L191.147934,6.94049587 C191.147934,6.57272727 191.290083,6.25950413 191.57438,6.00495868 C191.828926,5.74958678 192.138843,5.60743802 192.510744,5.58181818 L198.040496,5.58181818 C198.295868,4.9553719 198.679339,3.99338843 199.190083,2.68595041 L179.745455,2.68595041 Z" id="Fill-2" fill="#005F86"></path>
            <path d="M82.0636364,37.0677686 C81.6958678,37.0677686 81.3694215,37.2090909 81.085124,37.4933884 C80.8016529,37.7743802 80.6628099,38.1008264 80.6628099,38.468595 L80.6628099,61.4024793 L84.0165289,61.4024793 L84.0165289,41.3578512 C84.0165289,40.9900826 84.1421488,40.6636364 84.3975207,40.3793388 C84.6818182,40.0958678 85.0206612,39.9570248 85.4173554,39.9570248 L90.4280992,39.9570248 C93.0041322,39.9570248 94.7603306,40.392562 95.6966942,41.2710744 C96.6008264,42.177686 97.0561983,43.6495868 97.0561983,45.6900826 C97.0561983,47.6983471 96.5454545,49.0735537 95.5256198,49.8099174 C94.5347107,50.5454545 92.8363636,50.9132231 90.4280992,50.9132231 L89.2396694,50.9132231 C88.8429752,50.9396694 88.5165289,51.0975207 88.2619835,51.3785124 C87.9809917,51.6628099 87.838843,51.9884298 87.838843,52.3570248 C87.838843,52.753719 87.9809917,53.092562 88.2619835,53.3768595 C88.5165289,53.6322314 88.8429752,53.7702479 89.2396694,53.8 L90.8958678,53.8 C94.3504132,53.8 96.8140496,53.0636364 98.2859504,51.5917355 C99.7578512,50.0900826 100.494215,48.053719 100.494215,45.4768595 C100.494215,42.8140496 99.7289256,40.7479339 98.2016529,39.2752066 C96.6719008,37.8033058 94.2504132,37.0677686 90.9380165,37.0677686 L82.0636364,37.0677686 Z M120.031405,46.1132231 C120.031405,46.5099174 119.889256,46.8495868 119.605785,47.1330579 C119.324793,47.3884298 118.982645,47.5140496 118.58843,47.5140496 L118.58843,47.5561983 L108.732231,47.5561983 L108.732231,47.5140496 C108.309917,47.5140496 107.954545,47.3719008 107.673554,47.0909091 C107.389256,46.807438 107.247934,46.468595 107.247934,46.0710744 L107.247934,37.0256198 L103.935537,37.0256198 L103.935537,61.4446281 L107.247934,61.4446281 L107.247934,51.6338843 C107.27686,51.2652893 107.431405,50.9396694 107.715702,50.6586777 C107.996694,50.3743802 108.322314,50.2322314 108.690909,50.2322314 L118.58843,50.2322314 C118.982645,50.2322314 119.324793,50.3743802 119.605785,50.6586777 C119.889256,50.9396694 120.031405,51.2818182 120.031405,51.6752066 L120.031405,61.4446281 L123.38595,61.4446281 L123.38595,37.0256198 L120.031405,37.0256198 L120.031405,46.1132231 Z M130.946281,46.1966942 L130.946281,61.4859504 L127.634711,61.4859504 L127.634711,37.1090909 L130.946281,37.1090909 L130.946281,46.1966942 Z M142.626446,47.6016529 C141.406612,47.6016529 140.431405,47.346281 139.695041,46.8363636 C138.959504,46.3553719 138.590909,45.3768595 138.590909,43.9049587 C138.590909,42.3198347 139.000826,41.2578512 139.821488,40.7190083 C140.644628,40.2082645 141.677686,39.9570248 142.923967,39.9570248 L153.412397,39.9570248 L153.412397,37.0677686 L143.26281,37.0677686 C140.883471,37.0677686 138.959504,37.6198347 137.486777,38.7231405 C136.014876,39.8272727 135.279339,41.5677686 135.279339,43.9471074 C135.279339,46.2132231 135.943802,47.8694215 137.27438,48.9157025 C138.604132,49.9933884 140.389256,50.5297521 142.626446,50.5297521 L147.507438,50.5297521 C148.699174,50.5297521 149.661157,50.7842975 150.396694,51.2942149 C151.161983,51.8338843 151.542975,52.8793388 151.542975,54.438843 C151.542975,55.9661157 151.104132,57.014876 150.22562,57.5801653 C149.35124,58.1446281 148.330579,58.4289256 147.168595,58.4289256 L135.789256,58.4289256 L135.789256,61.3181818 L147.042975,61.3181818 C149.363636,61.3181818 151.246281,60.7504132 152.689256,59.6206612 C154.135537,58.4578512 154.855372,56.7181818 154.855372,54.3933884 C154.855372,52.0727273 154.206612,50.3619835 152.902479,49.2578512 C151.571901,48.153719 149.761157,47.6016529 147.466116,47.6016529 L142.626446,47.6016529 Z M174.564463,46.1132231 C174.564463,46.5099174 174.422314,46.8495868 174.138017,47.1330579 C173.853719,47.3884298 173.514876,47.5140496 173.118182,47.5140496 L173.118182,47.5561983 L163.265289,47.5561983 L163.265289,47.5140496 C162.842149,47.5140496 162.486777,47.3719008 162.203306,47.0909091 C161.922314,46.807438 161.780165,46.468595 161.780165,46.0710744 L161.780165,37.0256198 L158.467769,37.0256198 L158.467769,61.4446281 L161.780165,61.4446281 L161.780165,51.6338843 C161.805785,51.2652893 161.964463,50.9396694 162.244628,50.6586777 C162.528926,50.3743802 162.855372,50.2322314 163.22314,50.2322314 L173.118182,50.2322314 C173.514876,50.2322314 173.853719,50.3743802 174.138017,50.6586777 C174.422314,50.9396694 174.564463,51.2818182 174.564463,51.6752066 L174.564463,61.4446281 L177.918182,61.4446281 L177.918182,37.0256198 L174.564463,37.0256198 L174.564463,46.1132231 Z" id="Fill-3" fill="#000000"></path>
            <path d="M24.822314,38.0743802 C25.1578512,38.0743802 25.4487603,37.9520661 25.6975207,37.7033058 C25.946281,37.4545455 26.068595,37.1578512 26.068595,36.8123967 C26.068595,36.4801653 25.946281,36.1859504 25.6975207,35.9371901 C25.4487603,35.692562 25.1578512,35.5661157 24.822314,35.5661157 L17.2975207,35.5661157 C15.5570248,35.5661157 14.0785124,34.9561983 12.8553719,33.7322314 C11.631405,32.5090909 11.0181818,31.0272727 11.0181818,29.2876033 C11.0181818,27.5570248 11.631405,26.0818182 12.8553719,24.8578512 C14.0785124,23.6347107 15.5570248,23.0239669 17.2975207,23.0239669 L31.085124,23.0239669 L31.085124,28.0413223 L17.2975207,28.0413223 C16.9553719,28.0413223 16.6578512,28.1636364 16.4090909,28.4123967 C16.161157,28.661157 16.0347107,28.9545455 16.0347107,29.2876033 C16.0347107,29.6322314 16.161157,29.9297521 16.4090909,30.1785124 C16.6578512,30.4231405 16.9553719,30.5495868 17.2975207,30.5495868 L24.822314,30.5495868 C26.5528926,30.5495868 28.0280992,31.1595041 29.2520661,32.3834711 C30.4752066,33.6066116 31.085124,35.085124 31.085124,36.8123967 C31.085124,38.5520661 30.4752066,40.0338843 29.2520661,41.2578512 C28.0280992,42.4809917 26.5528926,43.0917355 24.822314,43.0917355 L11.0181818,43.0917355 L11.0181818,38.0743802 L24.822314,38.0743802 Z M47.5719008,23.0239669 C49.6545455,23.0239669 51.4297521,23.7570248 52.8958678,25.2231405 C54.361157,26.6917355 55.0975207,28.4669421 55.0975207,30.5495868 C55.0975207,32.631405 54.361157,34.407438 52.8958678,35.8727273 C51.4297521,37.3421488 49.6545455,38.0743802 47.5719008,38.0743802 L40.0471074,38.0743802 L40.0471074,33.0578512 L47.5719008,33.0578512 C48.2694215,33.0578512 48.8603306,32.8157025 49.3479339,32.3280992 C49.8355372,31.8404959 50.0809917,31.2471074 50.0809917,30.5495868 C50.0809917,29.8520661 49.8355372,29.2578512 49.3479339,28.7702479 C48.8603306,28.2834711 48.2694215,28.0413223 47.5719008,28.0413223 L37.538843,28.0413223 L37.538843,43.0917355 L32.5190083,43.0917355 L32.5190083,23.0239669 L47.5719008,23.0239669 Z" id="Fill-4" fill="#FFFFFF"></path>
        </g>
    </g>
</svg>