<?xml version="1.0" encoding="UTF-8" standalone="no"?>
<!-- Created with Inkscape (http://www.inkscape.org/) -->

<svg
   xmlns:dc="http://purl.org/dc/elements/1.1/"
   xmlns:cc="http://creativecommons.org/ns#"
   xmlns:rdf="http://www.w3.org/1999/02/22-rdf-syntax-ns#"
   xmlns:svg="http://www.w3.org/2000/svg"
   xmlns="http://www.w3.org/2000/svg"
   xmlns:sodipodi="http://sodipodi.sourceforge.net/DTD/sodipodi-0.dtd"
   xmlns:inkscape="http://www.inkscape.org/namespaces/inkscape"
   width="5.9266667mm"
   height="5.9266667mm"
   viewBox="0 0 21 21"
   id="svg3615"
   version="1.1"
   inkscape:version="0.91 r13725"
   sodipodi:docname="anyone_with_link.svg">
  <defs
     id="defs3617" />
  <sodipodi:namedview
     id="base"
     pagecolor="#ffffff"
     bordercolor="#666666"
     borderopacity="1.0"
     inkscape:pageopacity="0.0"
     inkscape:pageshadow="2"
     inkscape:zoom="5.6"
     inkscape:cx="-34.5"
     inkscape:cy="-3.7857147"
     inkscape:document-units="px"
     inkscape:current-layer="layer1"
     showgrid="false"
     fit-margin-top="0"
     fit-margin-left="0"
     fit-margin-right="0"
     fit-margin-bottom="0"
     inkscape:window-width="1920"
     inkscape:window-height="1018"
     inkscape:window-x="-8"
     inkscape:window-y="-8"
     inkscape:window-maximized="1" />
  <metadata
     id="metadata3620">
    <rdf:RDF>
      <cc:Work
         rdf:about="">
        <dc:format>image/svg+xml</dc:format>
        <dc:type
           rdf:resource="http://purl.org/dc/dcmitype/StillImage" />
        <dc:title></dc:title>
      </cc:Work>
    </rdf:RDF>
  </metadata>
  <g
     inkscape:label="Layer 1"
     inkscape:groupmode="layer"
     id="layer1"
     transform="translate(-409.5,-507.57649)">
    <g
       id="g3491"
       transform="translate(409.5,507.57649)">
      <path
         inkscape:connector-curvature="0"
         d="M 16,11.166 C 16,9.332 12.333,8.6 10.5,8.6 8.667,8.6 5,9.332 5,11.166 l 0,1.832 11,0 0,-1.832 z M 10.5,7 C 11.88,7 12.99,5.881 12.99,4.5 12.99,3.119 11.88,2 10.5,2 9.12,2 8,3.119 8,4.5 8,5.881 9.12,7 10.5,7 Z M 7,16.498 C 7,16.774 7.225,17 7.5,17 l 6,0 C 13.775,17 14,16.774 14,16.498 14,16.223 13.775,16 13.5,16 l -6,0 C 7.225,16 7,16.221 7,16.498 Z m 1.214,1.701 -1.714,0 c -0.939,0 -1.7,-0.762 -1.7,-1.699 0,-0.938 0.761,-1.701 1.7,-1.701 l 1.714,0 c 0.364,0 0.593,0.174 0.786,0.451 l 1,0 C 9.707,14.541 8.947,14 8.214,14 L 6.5,14 C 5.118,14 4,15.119 4,16.5 4,17.879 5.118,19 6.5,19 l 1.714,0 C 8.947,19 9.707,18.459 10,17.75 l -1,0 C 8.807,18.026 8.578,18.199 8.214,18.199 Z M 14.5,14 12.785,14 C 12.053,14 11.293,14.541 11,15.25 l 1,0 c 0.193,-0.277 0.422,-0.451 0.785,-0.451 l 1.715,0 c 0.939,0 1.7,0.763 1.7,1.701 0,0.938 -0.761,1.699 -1.7,1.699 l -1.715,0 c -0.363,0 -0.592,-0.173 -0.785,-0.449 l -1,0 c 0.293,0.709 1.053,1.25 1.785,1.25 l 1.715,0 c 1.382,0 2.49,-1.121 2.49,-2.5 0,-1.381 -1.108,-2.5 -2.49,-2.5 z"
         id="path3493" />
      <rect
         style="fill:#4387fd;fill-opacity:0"
         y="0"
         x="0"
         height="21"
         width="21"
         id="rect3495" />
    </g>
  </g>
</svg>
