<?xml version="1.0" encoding="UTF-8" standalone="no"?>
<!-- Created with Inkscape (http://www.inkscape.org/) -->

<svg
   xmlns:dc="http://purl.org/dc/elements/1.1/"
   xmlns:cc="http://creativecommons.org/ns#"
   xmlns:rdf="http://www.w3.org/1999/02/22-rdf-syntax-ns#"
   xmlns:svg="http://www.w3.org/2000/svg"
   xmlns="http://www.w3.org/2000/svg"
   xmlns:sodipodi="http://sodipodi.sourceforge.net/DTD/sodipodi-0.dtd"
   xmlns:inkscape="http://www.inkscape.org/namespaces/inkscape"
   width="8.3985214mm"
   height="8.3985214mm"
   viewBox="0 0 29.75854 29.75854"
   id="svg3734"
   version="1.1"
   inkscape:version="0.91 r13725"
   sodipodi:docname="at_domain.svg">
  <defs
     id="defs3736" />
  <sodipodi:namedview
     id="base"
     pagecolor="#ffffff"
     bordercolor="#666666"
     borderopacity="1.0"
     inkscape:pageopacity="0.0"
     inkscape:pageshadow="2"
     inkscape:zoom="1.979899"
     inkscape:cx="81.30784"
     inkscape:cy="-92.879952"
     inkscape:document-units="px"
     inkscape:current-layer="layer1"
     showgrid="false"
     fit-margin-top="0"
     fit-margin-left="0"
     fit-margin-right="0"
     fit-margin-bottom="0"
     inkscape:window-width="1920"
     inkscape:window-height="1018"
     inkscape:window-x="-8"
     inkscape:window-y="-8"
     inkscape:window-maximized="1" />
  <metadata
     id="metadata3739">
    <rdf:RDF>
      <cc:Work
         rdf:about="">
        <dc:format>image/svg+xml</dc:format>
        <dc:type
           rdf:resource="http://purl.org/dc/dcmitype/StillImage" />
        <dc:title></dc:title>
      </cc:Work>
    </rdf:RDF>
  </metadata>
  <g
     inkscape:label="Layer 1"
     inkscape:groupmode="layer"
     id="layer1"
     transform="translate(-293.69216,-328.91151)">
    <g
       transform="matrix(1.4170733,0,0,1.4170733,293.69216,328.91151)"
       id="g3370">
      <path
         d="m 11,9 0,-4 -7,0 0,11 13,0 0,-7 -6,0 z m -4,5 -1,0 0,-1 1,0 0,1 z m 0,-2 -1,0 0,-1 1,0 0,1 z M 7,10 6,10 6,9 7,9 7,10 Z M 7,8 6,8 6,7 7,7 7,8 Z m 2,6 -1,0 0,-1 1,0 0,1 z m 0,-2 -1,0 0,-1 1,0 0,1 z M 9,10 8,10 8,9 9,9 9,10 Z M 9,8 8,8 8,7 9,7 9,8 Z m 4,6 -1,0 0,-1 1,0 0,1 z m 0,-2 -1,0 0,-1 1,0 0,1 z m 2,2 -1,0 0,-1 1,0 0,1 z m 0,-2 -1,0 0,-1 1,0 0,1 z"
         id="path3372"
         inkscape:connector-curvature="0" />
      <rect
         height="21"
         width="21"
         id="rect3374"
         x="0"
         y="0"
         style="fill:#4387fd;fill-opacity:0" />
    </g>
  </g>
</svg>
