{
  "widgets": [
    {
      "type": "info",
      "logic": {
        "name": "groupInfoLogic",
        "nameColumn": "name",
        "emailColumn": "email"
      },
      "size": "small",
      "class": "group-info",
      "bodyStyle": {
        "height": "260px"
      },
      "wrapper": {
        "type": "widget-panel",
        "title": "Group info",
        "class": "avanan white-body"
      }
    }, {
      "type": "meta-info",
      "logic": {
        "name": "groupMetaInfoLogic",
        "beautifyKey": true
      },
      "uuid": "255349f6-3f24-4fa9-a899-50517b050249",
      "size": "medium",
      "bodyStyle": {
        "height": "260px"
      },
      "wrapper": {
        "type": "widget-panel",
        "title": "Group meta data",
        "class": "avanan white-body"
      },
      "pair": {
        "class": "group-meta-data"
      }
    }, {
      "type": "data-table",
      "logic": {
        "name": "groupMembershipLogic"
      },
      "size": "medium",
      "bodyStyle": {
        "height": "415px"
      },
      "class": "light medium-icons",
      "wrapper": {
        "type": "widget-panel",
        "title": "Membership",
        "class": "avanan white-body overflow-auto"
      },
      "options":{
        "checkboxes":false
      },
      "columns":[{
        "id": "entity_id",
        "hidden": true,
        "primary": true
      }, {
        "id": "photo_url",
        "text": false,
        "converter": "userImageConverter",
        "dataStyle": {
          "width": "40px"
        }
      }, {
        "id": "fullName",
        "text": "Name",
        "converter": "userWithEmail",
        "converterArgs": {
          "userIdColumn": "entity_id",
          "emailColumn": "primaryEmail",
          "suspendedColumn": "suspended"
        }
      }, {
        "id": "primaryEmail",
        "hidden": true
      }, {
        "id": "suspended",
        "hidden": true
      }, {
        "id": "department",
        "text": "Department"
      }, {
        "id": "lastLoginTime",
        "text": "Last login",
        "format": "time"
      }]
    }
  ]
}