{
  "widgets": [
    {
      "type": "info",
      "logic": {
        "name": "groupInfoLogic",
        "nameColumn": "name"
      },
      "size": "small",
      "class": "group-info",
      "bodyStyle": {
        "height": "260px"
      },
      "wrapper": {
        "type": "widget-panel",
        "title": "Group info",
        "class": "avanan white-body"
      }
    }, {
      "type": "meta-info",
      "logic": {
        "name": "groupMetaInfoLogic",
        "beautifyKey": true,
        "blackList": ["update_time", "entity_id"]
      },
      "uuid": "9d2a2490-fc8d-463c-841c-56ee96465c34",
      "size": "medium",
      "bodyStyle": {
        "height": "260px"
      },
      "wrapper": {
        "type": "widget-panel",
        "title": "Group meta data",
        "class": "avanan white-body"
      },
      "pair": {
        "class": "group-meta-data"
      }
    }, {
      "type": "data-table",
      "logic": {
        "name": "groupMembershipLogic"
      },
      "size": "medium",
      "bodyStyle": {
        "min-height": "400px"
      },
      "class": "light medium-icons",
      "wrapper": {
        "type": "widget-panel",
        "title": "Membership",
        "class": "avanan white-body overflow-auto",
        "filter": {
          "placeholder": "Filter users..."
        }
      },
      "options":{
        "checkboxes":false,
        "defaultOrdering": {
          "columnName": "name",
          "order": "asc"
        },
        "pageSize": 20,
        "disableTop": true,
        "pagesAround": 2
      },
      "columns":[{
        "id": "entity_id",
        "hidden": true,
        "primary": true
      }, {
        "id": "name",
        "text": "Name",
        "converter": "userConverter",
        "converterArgs": {
          "id": "entity_id"
        }
      }]
    }
  ]
}