{
  "widgets": [
    {
      "type": "info",
      "logic": {
        "name": "groupInfoLogic",
        "nameColumn": "Name"
      },
      "size": "small",
      "class": "group-info",
      "bodyStyle": {
        "height": "260px"
      },
      "wrapper": {
        "type": "widget-panel",
        "title": "Group info",
        "class": "avanan white-body"
      }
    }, {
      "type": "meta-info",
      "logic": {
        "name": "groupMetaInfoLogic",
        "beautifyKey": true
      },
      "uuid": "84568f09-2cb1-4182-8d64-e9ecaad3728b",
      "size": "medium",
      "bodyStyle": {
        "height": "260px"
      },
      "wrapper": {
        "type": "widget-panel",
        "title": "Group meta data",
        "class": "avanan white-body"
      },
      "pair": {
        "class": "group-meta-data"
      }
    }, {
      "type": "data-table",
      "logic": {
        "name": "groupMembershipLogic"
      },
      "size": "medium",
      "bodyStyle": {
        "min-height": "400px"
      },
      "class": "light medium-icons",
      "wrapper": {
        "type": "widget-panel",
        "title": "Membership",
        "class": "avanan white-body overflow-auto",
        "filter": {
          "placeholder": "Filter users..."
        }
      },
      "options":{
        "checkboxes":false,
        "defaultOrdering": {
          "columnName": "Name",
          "order": "asc"
        },
        "pageSize": 20,
        "disableTop": true,
        "pagesAround": 2
      },
      "columns":[{
        "id": "entity_id",
        "hidden": true,
        "primary": true
      }, {
        "id": "Name",
        "text": "Name",
        "converter": "userConverter",
        "converterArgs": {
          "id": "entity_id"
        }
      }, {
        "id": "Email",
        "text": "Email"
      }],
      "tags": {
        "admin": {
          "background": "#f35428",
          "color": "#FFFFFF"
        }
      }
    }, 
    {
      "type": "vector-map",
      "logic": {
        "name": "groupEventsMapLogic"
      },
      "size": "medium",
      "style": {
        "height": "369px"
      },
      "class": "pretty-zoom",
      "wrapper": {
        "type": "widget-panel",
        "title": "Group access map",
        "class": "avanan white-body overflow-auto"
      }
    },
    {
      "type": "data-table",
      "logic": {
        "name": "groupEventsListLogic",
        "timeColumnName": "Date",
        "updateTick": 5000
      },
      "uuid": "a730f3b2-17f7-4438-b50e-9978dc3de158",
      "size": "col-lg-12 col-md-12 col-sm-12 col-xs-12",
      "bodyStyle": {
        "height": "530px"
      },
      "class": "light high-light-new medium-icons",
      "wrapper": {
        "type": "widget-panel",
        "class": "avanan white-body",
        "title": "Live event log",
        "minimize": true,
        "filter": {
          "placeholder": "Filter events..."
        }
      },
      "options": {
        "pagesAround": 2,
        "pageSize": 100,
        "pagination": {
          "page": 1
        }
      },
      "columns": [
        {
          "id": "entity_id",
          "hidden": true,
          "primary": true
        },
        {
          "id": "user_id",
          "hidden": true
        },
        {
          "id": "user_email",
          "hidden": true
        },
        {
          "id": "Date",
          "text": "Date/time",
          "format": "time",
          "class": "one-line-date"
        },
        {
          "id": "user_name",
          "text": "User",
          "converter": "userWithEmail",
          "converterArgs": {
            "userIdColumn": "user_id",
            "emailColumn": "user_email"
          }
        },
        {
          "id": "doc_id",
          "hidden": true
        }, {
          "id": "mimeType",
          "text": false,
          "converter": "mimeIconConverter",
          "converterArgs": {
            "niceMimeColumn": "nice_mime_type",
            "exist": "source_type"
          },
          "dataStyle": {
            "width": "40px"
          },
          "style": {
            "width": "40px"
          }
        }, {
          "id": "source_type",
          "hidden": true
        }, {
          "id": "file_id",
          "hidden": true
        }, {
          "id": "file_name",
          "hidden": true
        }, {
          "id": "folder_id",
          "hidden": true
        }, {
          "id": "folder_name",
          "hidden": true
        },{
          "id": "title",
          "text": "Title",
          "converter": "fileOrFolderTitleConverter",
          "converterArgs": {
            "typeColumn": "source_type",
            "fileType": "file",
            "folderType": "folder",
            "fileIdColumn": "file_id",
            "fileTitleColumn": "file_name",
            "folderIdColumn": "folder_id",
            "folderTitleColumn": "folder_name"
          }
        },
        {
          "id": "Activity",
          "text": "Event",
          "converter": "eventType"
        },
        {
          "id": "IPAddress",
          "text": "IP",
          "href": {
            "type": "ip",
            "params": {
              "id": "IPAddress"
            }
          }
        },
        {
          "id": "Location",
          "text": "Location",
          "def": ""
        }
      ]
    }
  ]
}