{
  "widgets": [{
    "type": "flot",
    "logic": {
      "name": "leaTopSaasChartLogic",
      "noEmptyLines": true,
      "query": "dns_logger_top_saas",
      "link": "dns-logger-saas-access-log"
    },
    "uuid": "1c17bd26-b27d-4fa9-834e-25b872a76976",
    "size": "col-lg-6 col-md-6 col-sm-12 col-xm-12",
    "style": {
      "height": "300px"
    },
    "bodyStyle": {
      "height": "319px"
    },
    "wrapper": {
      "type": "widget-panel",
      "title": "Top SaaS By Sessions",
      "class": "avanan white-body overflow-auto",
      "filters": [
        {
          "type": "number",
          "value": "days",
          "local": true,
          "text": "last days",
          "state": 20,
          "min": 1,
          "style": {
            "width": "50px"
          }
        }
      ]
    }
  }, {
    "type": "flot",
    "logic": {
      "name": "leaUsageGraphLogic",
      "updateTick": 600000,
      "appNameColumn": "domain",
      "outerLegend": "bottom",
      "baseGaps": true,
      "query": "dns_logger_saas_usage",
      "periodParam": {
        "type": "id",
        "name": "_id"
      }
    },
    "size": "medium",
    "bodyStyle": {
      "height": "319px"
    },
    "style": {
      "height": "220px"
    },
    "uuid": "dbb9715b-a488-4ddc-97eb-b00843957f1a",
    "wrapper": {
      "type": "widget-panel",
      "title": "SaaS usages discovered over time",
      "class": "avanan white-body overflow-aut",
      "filters": []
    },
    "flotOptions": {
      "series": {
        "lines": {
          "show": true
        }
      },
      "grid": {
        "hoverable": true,
        "clickable": false,
        "borderWidth": 1,
        "tickColor": "#eee",
        "borderColor": "#eee"
      },
      "legend": {
        "show": true,
        "position": "nw",
        "noColumns": 5
      },
      "xaxis": {

      },
      "shadowSize": 0,
      "tooltip": true,
      "tooltipOpts": {
        "defaultTheme": false,
        "content": "%y.0 users for %s application",
        "shifts": {
          "x": 0,
          "y": 20
        }
      },
      "colors": [
        "#2980b9",
        "#89b041",
        "#f39c12"
      ]
    }
  }, {
    "type": "flot",
    "logic": {
      "name": "leaSaasCategoriesLogic",
      "query": "dns_logger_saas_categories",
      "viewerId": "dns-logger-saass"
    },
    "uuid": "e252f435-45b3-4534-a319-0e25ce196b5e",
    "size": "medium",
    "style": {
      "height": "288px"
    },
    "wrapper": {
      "type": "widget-panel",
      "class": "avanan white-body pie-chart",
      "title": "SaaS Categories",
      "filters": [
        {
          "type": "number",
          "value": "days",
          "local": true,
          "text": "last days",
          "state": 20,
          "min": 1,
          "style": {
            "width": "50px"
          }
        }
      ]
    },
    "flotOptions": {
      "series": {
        "pie": {
          "show": true,
          "radius": 0.7
        }
      },
      "legend": {
        "show": true,
        "position": "ne"
      },
      "grid": {
        "hoverable": true,
        "clickable": true
      },
      "shadowSize": 0,
      "tooltip": true,
      "tooltipOpts": {
        "defaultTheme": false,
        "content": "%s",
        "shifts": {
          "x": 0,
          "y": 20
        }
      }
    }
  }, {
    "type": "data-table",
    "logic": {
      "name": "leaSaasLatestAccessLogic",
      "query": "dns_logger_saas_latest_access"
    },
    "size": "medium",
    "bodyStyle": {
      "height": "319px"
    },
    "style": {
      "height": "288px"
    },
    "class": "light medium-icons",
    "uuid": "8f33f551-10d4-4ead-ba2b-5903f1b2a76a",
    "wrapper": {
      "type": "widget-panel",
      "title": "Latest SaaS Usage",
      "class": "avanan white-body overflow-auto"
    },
    "options": {
      "pageSize": 100,
      "dropdownHeader": true
    },
    "columns": [{
      "id": "domain",
      "text": "SaaS",
      "href": {
        "type": "viewer",
        "params": {
          "id": "dns-logger-saas-access-log"
        },
        "qs": {
          "saas": "domain"
        }
      },
      "sortable": true
    }, {
      "id": "av_category",
      "text": "Category",
      "sortable": true,
      "filter": {
        "type": "text",
        "name": "category"
      }
    }, {
      "id": "time",
      "text": "Last Access Time",
      "format": "time",
      "sortable": true
    }]
  }]
}