{
  "rows":[
    [{
      "type": "multi-widget",
      "logic": {
        "name": "policyInfoBoxes",
        "updateTick": null,
        "boxesSize": "col-lg-3 col-md-4 col-sm-4 col-xs-4",
        "boxesIdxToId": ["google-small-1", "google-small-2", "google-small-3", "google-small-4", "google-small-5", "google-small-6", "google-small-7", "google-small-8"],
        "staticBoxes": {
          "static-1": {
            "type": "info",
            "logic": {
              "name": "userInfoBoxLogic",
              "external": {
                "id": "external-users",
                "label": "External"
              },
              "internal": {
                "label": "Internal",
                "active": {
                  "id": "active-users",
                  "tooltip": "Active 7 days"
                },
                "total": {
                  "id": "total-users",
                  "tooltip": "Total"
                }
              },
              "updateTick": 30000
            },
            "size": "col-lg-3 col-md-4 col-sm-4 col-xs-4",
            "class": "avanan-info-box",
            "wrapper": {
              "type": "widget-panel",
              "class": "avanan color4",
              "title": "Users"
            }
          },
          "static-2": {
            "type": "info",
            "logic": {
              "name": "infoBoxLogic",
              "id": "applications",
              "title": "Applications",
              "updateTick": 30000
            },
            "size": "col-lg-3 col-md-4 col-sm-4 col-xs-4",
            "class": "avanan-info-box",
            "wrapper": {
              "type": "widget-panel",
              "class": "avanan color4",
              "title": "Applications",
              "tooltip": "Applications installed on the drive"
            }
          }
        }
      },
      "size": "col-lg-12 col-md-12 col-sm-12 col-xs-12 no-padding",
      "wrapper": {
        "type": "none"
      }
    }],
    [{
      "type": "multi-widget",
      "size": "col-lg-8 col-md-12 col-sm-12 col-xs-12 col-lg-no-right-padding col-xs-clearfix",
      "style": {
        "height": "230px"
      },
      "wrapper": {
        "type": "none"
      },
      "logic": {
        "name": "dashboardSecurityStatLogic",
        "size": "half",
        "updateTick": null
      }
    }, {
      "type": "heat-map",
      "logic": {
        "name": "heatMapLogic",
        "updateTick": 30000
      },
      "class": "light pretty-zoom",
      "uuid": "fd73a185-06c6-46ee-a750-8fcb255432ae",
      "size": "col-lg-4 col-md-12 col-sm-12 col-xs-12 col-lg-no-left-padding",
      "style": {
        "height": "280px"
      },
      "wrapper": {
        "type":"widget-panel",
        "class": "solid-avanan white-body",
        "title": "Events map",
        "filters": [
          {
            "type": "number",
            "value": "days",
            "local": true,
            "text": "last days",
            "state": 10,
            "min": 1,
            "style": {
              "width": "50px"
            }
          }
        ]
      },
      "mapOptions": {
        "backgroundColor": "#f0eff5"
      }
    }, {
      "type": "data-table",
      "logic": {
        "name": "eventsListLogic",
        "timeColumnName": "time",
        "updateTick": 5000
      },
      "uuid": "080894b8-4989-4739-bf5d-7ec6d909d797",
      "size": "col-lg-12 col-md-12 col-sm-12 col-xs-12",
      "bodyStyle": {
        "height": "530px"
      },
      "class": "light high-light-new medium-icons",
      "wrapper": {
        "type": "widget-panel",
        "class": "avanan white-body",
        "title": "Live event log",
        "minimize": true,
        "filter": {
          "placeholder": "Filter events..."
        }
      },
      "options": {
        "pagesAround": 2,
        "pageSize": 100,
        "pagination": {
          "page": 1
        }
      },
      "columns": [
        {
          "id": "entity_id",
          "hidden": true,
          "primary": true
        },
        {
          "id": "user_id",
          "hidden": true
        },
        {
          "id": "time",
          "text": "Date/time",
          "format": "time",
          "class": "one-line-date"
        },
        {
          "id": "photo_url",
          "text": false,
          "converter": "userImageConverter",
          "converterArgs": {
            "exist": "user_id"
          },
          "dataStyle": {
            "width": "40px"
          }
        },
        {
          "id": "fullName",
          "text": "User",
          "converter": "userConverter",
          "converterArgs": {
            "id": "user_id"
          }
        },
        {
          "id": "doc_id",
          "hidden": true
        }, {
          "id": "mimeType",
          "text": false,
          "converter": "mimeIconConverter",
          "converterArgs": {
            "niceMimeColumn": "nice_mime_type",
            "exist": "doc_id"
          },
          "dataStyle": {
            "width": "40px"
          },
          "style": {
            "width": "40px"
          }
        }, {
          "id": "title",
          "text": "File",
          "href": {
            "type": "file",
            "params": {
              "id": "doc_id"
            }
          }
        },
        {
          "id": "name",
          "text": "Event",
          "converter": "eventType"
        },
        {
          "id": "ip",
          "text": "IP",
          "def": "",
          "href": {
            "type": "ip",
            "params": {
              "id": "ip"
            }
          }
        },
        {
          "id": "geo_country",
          "text": "Country",
          "def": ""
        },
        {
          "id": "geo_city",
          "text": "City",
          "def": ""
        },
        {
          "id": "event_description",
          "text": "Description",
          "def": ""
        }
      ]
    }]
  ],
  "deprecatedWidgets": [{
    "type": "flot",
    "logic": {
      "name": "policiesPlotLogic",
      "updateTick": 60000,
      "days": 30
    },
    "uuid": "a536867d-7df0-43b1-b82d-d93eba85a756",
    "size": "col-lg-6 col-md-12 col-sm-12 col-xs-12 col-lg-no-right-padding",
    "style": {
      "height": "251px"
    },
    "wrapper": {
      "type": "widget-panel",
      "class": "solid-avanan",
      "title": "Policy discoveries per day",
      "minimize": true
    },
    "flotOptions": {
      "legend":{
        "position": "nw",
        "backgroundColor": "null"
      },
      "series": {
        "lines": {
          "show": true,
          "steps": false,
          "lineWidth": 2
        },
        "points": {
          "show": true
        },
        "shadowSize": 0
      },
      "grid": {
        "hoverable": true,
        "clickable": true,
        "tickColor": "#dcdcdc",
        "borderWidth": 1,
        "borderColor": "#dcdcdc"
      },
      "colors": [
        "#2980b9",
        "#89b041",
        "#f39c12"
      ],
      "xaxis": {
        "tickColor": "#dcdcdc",
        "mode": "time",
        "timeformat": "%y-%m-%d",
        "size": 10,
        "ticks": 5
      },
      "yaxis": {
        "ticks": 4,
        "min": 0,
        "minTickSize": 1
      },
      "tooltip": true,
      "tooltipOpts": {
        "content": "%s: %y discoveries at %x",
        "xDateFormat": "%y-%m-%d",
        "defaultTheme": false,
        "shifts": {
          "x": 0,
          "y": 20
        }
      }
    }
  }]
}