{
  "rows":[[{
      "type": "multi-widget",
      "logic": {
        "name": "policyInfoBoxes",
        "updateTick": null,
        "boxesSize": "col-lg-3 col-md-4 col-sm-4 col-xs-4",
        "boxesIdxToId": ["slack-small-1", "slack-small-2", "slack-small-3", "slack-small-4", "slack-small-5", "slack-small-6", "slack-small-7", "slack-small-8"],
        "staticBoxes": {
        }
      },
      "size": "col-lg-12 col-md-12 col-sm-12 col-xs-12 no-padding",
      "wrapper": {
        "type": "none"
      }
    }], [{
    "type": "multi-widget",
    "size": "col-lg-12 col-md-12 col-sm-12 col-xs-12 col-lg-no-right-padding col-xs-clearfix",
    "style": {
      "height": "230px"
    },
    "wrapper": {
      "type": "none"
    },
    "logic": {
      "name": "dashboardSecurityStatLogic",
      "size": "full",
      "updateTick": null

    }
  }, {
    "type": "data-table",
    "logic": {
      "name": "eventsListLogic",
      "timeColumnName": "created",
      "updateTick": 5000
    },
    "uuid": "124aef47-5456-4dc2-81c5-5b50657bfb39",
    "size": "col-lg-12 col-md-12 col-sm-12 col-xs-12",
    "bodyStyle": {
      "height": "530px"
    },
    "class": "light high-light-new medium-icons",
    "wrapper": {
      "type": "widget-panel",
      "class": "avanan white-body",
      "title": "Live event log",
      "minimize": true,
      "filter": {
        "placeholder": "Filter events..."
      }
    },
    "options": {
      "pagesAround": 2,
      "pageSize": 100,
      "pagination": {
        "page": 1
      }
    },
    "columns": [
      {
        "id": "entity_id",
        "hidden": true,
        "primary": true
      }, {
        "id": "created",
        "text": "Date/time",
        "format": "time",
        "class": "one-line-date"
      }, {
        "id": "user_id",
        "hidden": true
      }, {
        "id": "user_email",
        "hidden": true
      }, {
        "id": "user_real_name",
        "text": "User",
        "converter": "userWithEmail",
        "converterArgs": {
          "userIdColumn": "user_id",
          "emailColumn": "user_email",
          "userLinkType": "user"
        }
      }, {
        "id": "mimetype",
        "text": false,
        "converter": "mimeIconConverter",
        "converterArgs": {
          "exist": "file_id"
        },
        "dataStyle": {
          "width": "40px"
        },
        "style": {
          "width": "40px"
        }
      }, {
        "id": "file_id",
        "hidden": true
      }, {
        "id": "file_name",
        "text": "File",
        "href": {
          "type": "file",
          "params": {
            "id": "file_id"
          }
        }
      }, {
        "id": "type",
        "text": "Type"
      }, {
        "id": "subtype",
        "text": "SubType"
      }, {
        "id": "channel_id",
        "hidden": true
      }, {
        "id": "channel_name",
        "text": "Channel",
        "href": {
          "type": "folder",
          "params": {
            "id": "channel_id"
          }
        }
      }
    ]
  }]]
}