{
  "rows":[
    [{
      "type": "multi-widget",
      "logic": {
        "name": "summaryReportLogic",
        "updateTick": 600000
      },
      "size": "col-lg-12 col-md-12 col-sm-12 col-xm-12",
      "class": "light medium-icons vertical-middle summary-report-container",
      "wrapper": {
        "type": "none"
      }
    }]
  ]
}