{
  "options": {
    "autoUpdate": 180000,
    "title": "Suspicious Subjects",
    "checkboxes": false,
    "highLightNew": false,
    "disableTop": true,
    "noFilter": true,
    "dropdownHeader": true,
    "defaultOrdering": {
      "columnName": "internalDate",
      "order": "desc"
    },
    "pageTitleTemplate": "<strong>Emails</strong>",
    "pageTitleHelper": "locationSearchTemplate",
    "panelTitleTemplate": "{{tableTotal}} emails with subject \"{{subject}}\""
  },
  "columns": [{
    "id": "entity_id",
    "hidden": true,
    "primary": true

  }, {
    "id": "from",
    "hidden": true
  }, {
    "id": "fromName",
    "text": "From",
    "converter": "userWithEmail",
    "converterArgs": {
      "emailColumn": "from"
    }
  }, {
    "id": "subject",
    "text": "Subject",
    "href": {
      "type": "email",
      "params": {
        "id": "entity_id"
      }
    }
  }, {
    "id": "owner_email",
    "text": "Mailbox"
  }, {
    "id": "internalDate",
    "text": "Received Time",
    "format": "time",
    "sortable": true
  }, {
    "id": "phishing",
    "text": "Smart-Phish Status",
    "filter": "phishing_filter"
  }]
}
