{
  "options": {
    "autoUpdate": 60000,
    "title": "Email Owners",
    "checkboxes": true,
    "highLightNew": false,
    "defaultOrdering": {
      "columnName": "amount",
      "order": "desc"
    },
    "pageTitleTemplate": "<strong>Email Owners</strong>",
    "pageTitleHelper": "locationSearchTemplate",
    "panelTitleTemplate": "{{tableTotal}} Users, {{total_amount}} Total Emails"
  },
  "panel": {
    "uuid": "a84f75bd-2c59-4d09-aad0-c2245d2650ee",
    "class": "light white-body white-header no-margin",
    "inlineFilters": [{
      "type": "staticText",
      "value": "Last"
    }, {
      "type": "number",
      "id": "intervalCount",
      "default": 10,
      "tooltip": "Interval",
      "min": 1
    }, {
      "type": "select",
      "id": "intervalType",
      "tooltip": "Interval type",
      "default": "day",
      "variants": [{
        "id": "day",
        "label": "Days"
      }, {
        "id": "hour",
        "label": "Hours"
      }, {
        "id": "minute",
        "label": "Minutes"
      }]
    }]
  },
  "columns": [{
    "id": "entity_id",
    "hidden": true,
    "primary": true
  }, {
    "id": "primaryEmail",
    "hidden": true
  }, {
    "id": "fullName",
    "text": "User",
    "converter": "userWithEmail",
    "converterArgs": {
      "userIdColumn": "entity_id",
      "emailColumn": "primaryEmail"
    },
    "sortable": {
      "id": "primaryEmail"
    }
  }, {
    "id": "amount",
    "text": "Total Emails",
    "sortable": true
  }, {
    "id": "amount_percent",
    "text": "Percent",
    "sortable": true
  }, {
    "id": "total_amount",
    "hidden": true
  }]
}
