{
  "options": {
    "autoUpdate": 60000,
    "title": "Email Senders",
    "checkboxes": true,
    "highLightNew": false,
    "defaultOrdering": {
      "columnName": "amount",
      "order": "desc"
    },
    "pageTitleTemplate": "<strong>Email Senders</strong>",
    "pageTitleHelper": "locationSearchTemplate",
    "panelTitleTemplate": "{{tableTotal}} Senders, {{total_amount}} Total Emails"
  },
  "panel": {
    "uuid": "63c231ee-728f-4dd4-a311-1fddc1c3ec9d",
    "class": "light white-body white-header no-margin",
    "inlineFilters": [{
      "type": "staticText",
      "value": "Last"
    }, {
      "type": "number",
      "id": "intervalCount",
      "default": 10,
      "tooltip": "Interval",
      "min": 1
    }, {
      "type": "select",
      "id": "intervalType",
      "tooltip": "Interval type",
      "default": "day",
      "variants": [{
        "id": "day",
        "label": "Days"
      }, {
        "id": "hour",
        "label": "Hours"
      }, {
        "id": "minute",
        "label": "Minutes"
      }]
    }]
  },
  "columns": [{
    "id": "from",
    "primary": true,
    "sortable": true
  }, {
    "id": "amount",
    "text": "Total Emails Sent",
    "sortable": true
  }, {
    "id": "amount_percent",
    "text": "Percent",
    "sortable": true
  }, {
    "id": "total_amount",
    "hidden": true
  }]
}
