{
  "options": {
    "autoUpdate": 60000,
    "title": "SaaS Discovered",
    "checkboxes": false,
    "highLightNew": false,
    "disableTop": true,
    "defaultOrdering": {
      "columnName": "last_used",
      "order": "desc"
    }
  },
  "columns": [{
    "id": "domain",
    "text": "SaaS",
    "sortable": true
  }, {
    "id": "ip_count",
    "text": "Users amount",
    "sortable": true
  }, {
    "id": "events_count",
    "text": "Sessions Amount",
    "sortable": true
  }, {
    "id": "last_used",
    "text": "Last Access Time",
    "format": "time",
    "sortable": true
  }, {
    "id": "first_used",
    "text": "First Access Time",
    "format": "time",
    "sortable": true
  }]
}