{
  "restoreActionId": "office365_emails_email_restore",
  "restoreFeature": "emailRestore",
  "entityType": "office365_emails_email",
  "options": {
    "autoUpdate": 60000,
    "title": "Quarantined emails",
    "checkboxes": true,
    "highLightNew": false,
    "defaultOrdering": {
      "columnName": "ReceivedDateTime",
      "order": "desc"
    },
    "lazyPromiseResolve": true,
    "dropdownHeader": true
  },
  "uuid": "afe1dccc-9391-4ba8-9d2b-f3eccbd11d26",
  "filters": [{
    "type": "flag",
    "local": false,
    "state": false,
    "text": "Show restored emails",
    "value": "show_restored"
  }],
  "pagination": {},
  "columns": [{
    "id": "entity_id",
    "hidden": true,
    "primary": true
  }, {
    "id": "sender_mail",
    "hidden": true
  }, {
    "id": "Sender",
    "hidden": true
  }, {
    "id": "sender_is_external_user",
    "hidden": true
  }, {
    "id": "sender_name",
    "text": "Sender",
    "converter": "userWithEmail",
    "converterArgs": {
      "userIdColumn": "Sender",
      "emailColumn": "sender_mail",
      "isExternalColumn": "sender_is_external_user"
    },
    "sortable": true,
    "filter": {
      "type": "text",
      "name": "sender_filter"
    }
  }, {
    "id": "recipients",
    "text": "Recipients",
    "converter": "listConverter",
    "converterArgs": {
      "countPostfix": "recipients",
      "collapseRest": true,
      "expanded": 4,
      "itemConverter": "userWithEmail",
      "itemConverterArgs": {
        "userIdColumn": "recipient_id",
        "emailColumn": "mail",
        "isExternalColumn": "is_external_user"
      },
      "itemConverterScope": "element",
      "itemConverterTextColumn": "recipient_name"
    },
    "filter": {
      "type": "text",
      "name": "recipients_filter"
    }
  }, {
    "id": "Subject",
    "text": "Subject",
    "sortable": true,
    "href": {
      "type": "email",
      "params": {
        "id": "entity_id"
      }
    },
    "filter": {
      "type": "text",
      "name": "subject_filter"
    }
  }, {
    "id": "attachments_count",
    "text": "Attachments"
  }, {
    "id": "ReceivedDateTime",
    "text": "Received At",
    "format": "time",
    "sortable": "true",
    "class": "one-line-date",
    "filter": {
      "type": "date",
      "name": "ReceivedDateTime_filter"
    }
  }, {
    "id": "quarantined_at",
    "text": "Quarantined At",
    "format": "time",
    "sortable": "true",
    "class": "one-line-date",
    "filter": {
      "type": "date",
      "name": "quarantined_at_filter"
    },
    "def": " "
  }, {
    "id": "is_quarantined_restored",
    "text": "Restored",
    "showIf": "show_restored",
    "converter": "booleanCheckConverter",
    "converterArgs": {
      "checkClass": ""
    }
  }, {
    "id": "restored_at",
    "text": "Restored At",
    "format": "time",
    "sortable": "true",
    "class": "one-line-date",
    "showIf": "show_restored",
    "filter": {
      "type": "date",
      "name": "restored_at_filter"
    },
    "def": " "
  }]
}