{
  "options": {
    "autoUpdate": 60000,
    "title": "Email Senders",
    "checkboxes": true,
    "highLightNew": false,
    "defaultOrdering": {
      "columnName": "amount",
      "order": "desc"
    },
    "pageTitleTemplate": "<strong>Email Senders</strong>",
    "pageTitleHelper": "locationSearchTemplate",
    "panelTitleTemplate": "{{tableTotal}} Senders, {{total_amount}} Total Emails"
  },
  "panel": {
    "uuid": "22c7e11f-b6d2-4b31-99b3-b98a3a5c7e64",
    "class": "light white-body white-header no-margin",
    "inlineFilters": [{
      "type": "staticText",
      "value": "Last"
    }, {
      "type": "number",
      "id": "intervalCount",
      "default": 10,
      "tooltip": "Interval",
      "min": 1
    }, {
      "type": "select",
      "id": "intervalType",
      "tooltip": "Interval type",
      "default": "day",
      "variants": [{
        "id": "day",
        "label": "Days"
      }, {
        "id": "hour",
        "label": "Hours"
      }, {
        "id": "minute",
        "label": "Minutes"
      }]
    }]
  },
  "columns": [{
    "id": "From",
    "hidden": true,
    "primary": true
  }, {
    "id": "mail",
    "hidden": true
  }, {
    "id": "display_name",
    "text": "User",
    "converter": "userWithEmail",
    "converterArgs": {
      "userIdColumn": "From",
      "emailColumn": "mail"
    },
    "sortable": {
      "id": "mail"
    }
  }, {
    "id": "amount",
    "text": "Total Emails Sent",
    "sortable": true
  }, {
    "id": "amount_percent",
    "text": "Percent",
    "sortable": true
  }, {
    "id": "total_amount",
    "hidden": true
  }]
}
