{
  "widgets": [{
    "type": "info",
    "logic": {
      "name": "folderInfoLogic",
      "mimeTypeColumn": "mimeType",
      "titleColumn": "name",
      "sizeColumn": "size",
      "linkColumn": "web_url",
      "isDeletedColumn": "is_deleted",
      "metaInfo": {
        "type": "meta-info",
        "logic": {
          "name": "folderMetaInfoLogic",
          "beautifyKey": true
        },
        "uuid": "91813974-C7FF-11E4-BE80-C1B658BB2172",
        "size": "col-lg-6 col-md-12 col-sm-12 col-xm-12",
        "bodyStyle": {
          "height": "230px"
        },
        "wrapper": {
          "type": "widget-panel",
          "title": "Folder meta data",
          "class": "avanan white-body overflow-auto"
        },
        "pair": {
          "class": "folder-meta-data"
        }
      }
    },
    "class": "folder-info",
    "bodyStyle": {
      "height": "415px"
    },
    "size": "col-lg-6 col-md-12 col-sm-12 col-xm-12",
    "wrapper": {
      "type": "widget-panel",
      "title": "Folder info",
      "class": "avanan white-body overflow-auto",
      "buttons": [{
        "id": "show-meta-info",
        "class": "btn-icon",
        "iconClass": "fa fa-external-link",
        "position": "right"
      }]
    }
  }, {
    "type": "data-table",
    "logic": {
      "name": "folderPermissionLogic",
      "entityType": "office365_onedrive_folder"
    },
    "size": "col-lg-6 col-md-12 col-sm-12 col-xm-12",
    "bodyStyle": {
      "height": "415px"
    },
    "class": "light medium-icons vertical-middle",
    "wrapper": {
      "type": "widget-panel",
      "title": "Permissions",
      "class": "avanan white-body overflow-auto"
    },
    "options": {
      "checkboxes": false
    },
    "columns": [{
      "id": "entity_id",
      "hidden": true,
      "primary": true
    }, {
      "id": "thumbnail_photo",
      "text": false,
      "converter": "userImageConverter",
      "converterArgs": {
        "type": "type",
        "saas": "office365_onedrive"
      },
      "dataStyle": {
        "width": "40px"
      }
    }, {
      "id": "display_name",
      "text": "Username",
      "converter": "userWithEmail",
      "converterArgs": {
        "userIdColumn": "entity_id",
        "emailColumn": "mail",
        "isExternalColumn": "is_external_user"
      }
    }, {
      "id": "mail",
      "hidden": true
    }, {
      "id": "type",
      "hidden": true
    }, {
      "id": "is_external_user",
      "hidden": true
    }, {
      "id": "role",
      "text": "Type",
      "type": "tag",
      "style": {
        "text-align": "center"
      },
      "dataStyle": {
        "text-align": "center"
      }
    }, {
      "id": "can_view",
      "text": "Can view",
      "converter": "booleanCheckConverter"
    }, {
      "id": "can_download",
      "text": "Can download",
      "converter": "booleanCheckConverter"
    }, {
      "id": "can_edit",
      "text": "Can edit",
      "converter": "booleanCheckConverter"
    }, {
      "id": "can_delete",
      "text": "Can delete",
      "converter": "booleanCheckConverter"
    }],
    "tags": {
      "owner": {
        "background": "#4ac598",
        "color": "#FFFFFF"
      },
      "creator": {
        "background": "#4ac598",
        "color": "#FFFFFF"
      },
      "external": {
        "background": "#4c99a9",
        "color": "#FFFFFF"
      },
      "internal": {
        "background": "#3ec291",
        "color": "#FFFFFF"
      },
      "share": {
        "background": "#f35428",
        "color": "#FFFFFF"
      }
    }
  }]
}
