{
  "widgets": [{
    "type": "info",
    "logic": {
      "name": "folderInfoLogic",
      "mimeTypeColumn": "mimeType",
      "titleColumn": "DisplayName",
      "metaInfo": {
        "type": "meta-info",
        "logic": {
          "name": "folderMetaInfoLogic",
          "beautifyKey": true
        },
        "uuid": "91813974-C7FF-11E4-BE80-C1B658BB2172",
        "size": "col-lg-6 col-md-12 col-sm-12 col-xm-12",
        "bodyStyle": {
          "height": "230px"
        },
        "wrapper": {
          "type": "widget-panel",
          "title": "Folder meta data",
          "class": "avanan white-body overflow-auto"
        },
        "pair": {
          "class": "folder-meta-data"
        }
      }
    },
    "class": "folder-info",
    "bodyStyle": {
      "height": "230px"
    },
    "size": "col-lg-6 col-md-12 col-sm-12 col-xm-12",
    "wrapper": {
      "type": "widget-panel",
      "title": "Folder info",
      "class": "avanan white-body overflow-auto",
      "buttons": [{
        "id": "show-meta-info",
        "class": "btn-icon",
        "iconClass": "fa fa-external-link",
        "position": "right"
      }]
    }
  }]
}
