<?xml version="1.0" encoding="UTF-8"?>
<svg width="15px" height="15px" viewBox="0 0 15 15" version="1.1" xmlns="http://www.w3.org/2000/svg" xmlns:xlink="http://www.w3.org/1999/xlink">
    <g stroke="none" stroke-width="1" fill="none" fill-rule="evenodd">
        <path fill="#777777" fill-opacity="0.7" d="M14.1294816,11.6116043 C14.1294816,11.3325861 14.0178743,11.0535679 13.8169812,10.8526748 L10.5357273,7.57142091 L13.8169812,4.290167 C14.0178743,4.0892739 14.1294816,3.81025571 14.1294816,3.53123752 C14.1294816,3.25221933 14.0178743,2.97320114 13.8169812,2.77230804 L12.2991222,1.25444909 C12.0982291,1.053556 11.8192109,0.941948719 11.5401928,0.941948719 C11.2611746,0.941948719 10.9821564,1.053556 10.7812633,1.25444909 L7.50000937,4.535703 L4.21875545,1.25444909 C4.01786236,1.053556 3.73884417,0.941948719 3.45982598,0.941948719 C3.18080779,0.941948719 2.9017896,1.053556 2.7008965,1.25444909 L1.18303755,2.77230804 C0.982144454,2.97320114 0.870537178,3.25221933 0.870537178,3.53123752 C0.870537178,3.81025571 0.982144454,4.0892739 1.18303755,4.290167 L4.46429146,7.57142091 L1.18303755,10.8526748 C0.982144454,11.0535679 0.870537178,11.3325861 0.870537178,11.6116043 C0.870537178,11.8906225 0.982144454,12.1696407 1.18303755,12.3705338 L2.7008965,13.8883927 C2.9017896,14.0892858 3.18080779,14.2008931 3.45982598,14.2008931 C3.73884417,14.2008931 4.01786236,14.0892858 4.21875545,13.8883927 L7.50000937,10.6071388 L10.7812633,13.8883927 C10.9821564,14.0892858 11.2611746,14.2008931 11.5401928,14.2008931 C11.8192109,14.2008931 12.0982291,14.0892858 12.2991222,13.8883927 L13.8169812,12.3705338 C14.0178743,12.1696407 14.1294816,11.8906225 14.1294816,11.6116043 Z"></path>
    </g>
</svg>
