{
  "widgets": [
    {
      "type": "security-matrix",
      "logic": {
        "name": "securityMatrixLogic",
        "updateTick": 5000
      },
      "size": "col-lg-12 col-md-12 col-sm-12 col-xs-12",
      "wrapper": {
        "type": "widget-panel",
        "class": "avanan white-body",
        "title": "Security matrix"
      },
      "groups": [{
        "label": "Applications"
      }, {
        "label": "Security incident & event monitoring",
        "items": [{
          "img": {
            "path": "/assets/security-stack/images/solutions/splunk.jpg"
          },
          "labels": ["Leading SIEM platform"]
        }],
        "addRoute": {
          "name": "app-store",
          "params": {
            "filter": "siem"
          }
        }
      }, {
        "label": "Anti virus",
        "items": [{
          "img": {
            "path": "/assets/security-stack/images/solutions/mcafee.jpg"
          },
          "labels": ["Embedded security solutions"]
        }],
        "addRoute": {
          "name": "app-store",
          "params": {
            "filter": "antivirus"
          }
        }
      }, {
        "label": "Anomaly detection"
      }, {
        "label": "Advanced persistent threads",
        "items": [{
          "img": {
            "path": "/assets/security-stack/images/solutions/fireeye.jpg"
          },
          "labels": ["Network Thread Prevention Platform"]
        }, {
          "img": {
            "path": "/assets/security-stack/images/solutions/paloalto.jpg"
          },
          "labels": ["Network Thread Prevention Platform"]
        }],
        "addRoute": {
          "name": "app-store",
          "params": {
            "filter": "apt"
          }
        }
      }, {
        "label": "Data leakage prevention",
        "items": [{
          "img": {
            "path": "/assets/security-stack/images/solutions/symantec.jpg"
          },
          "labels": ["Data Loss Prevention"]
        }]
      }, {
        "label": "Encryption",
        "items": [{
          "img": {
            "path": "/assets/security-stack/images/solutions/microsoft-drm.jpg"
          },
          "labels": ["Microsoft Rights Management"]
        }]
      }],
      "applications": [{
        "img": {
          "path": "/assets/security-stack/images/applications/box.jpg"
        },
        "label": "Box",
        "groups": ["on-green", "off", "on-green", "on-green", "off", "on-green"]
      }, {
        "img": {
          "path": "/assets/security-stack/images/applications/gmail.jpg"
        },
        "label": "Gmail",
        "groups": ["on-green", "off", "on-green", "on-green", "on-green", "on-green"]
      }, {
        "img": {
          "path": "/assets/security-stack/images/applications/salesforce.jpg"
        },
        "label": "Sales force",
        "groups": ["off", "off", "off", "off", "off", "off"]
      }, {
        "img": {
          "path": "/assets/security-stack/images/applications/office365_onedrive.jpg"
        },
        "label": "Office 365",
        "groups": ["on-green", "off", "on-green", "on-green", "on-green", "off"]
      }, {
        "img": {
          "path": "/assets/security-stack/images/applications/dropbox.jpg"
        },
        "label": "Dropbox",
        "groups": ["on-green", "on-green", "on-green", "on-green", "on-green", "on-green"]
      }]
    }
  ]
}