{
  "options": {
    "autoUpdate": 60000,
    "title": "Security Tools Exceptions",
    "checkboxes": true,
    "highLightNew": false,
    "defaultOrdering": {
      "columnName": "added_at",
      "order": "desc"
    },
    "lazyPromiseResolve": true
  },
  "pagination": {},
  "columns": [{
    "id": "entity",
    "hidden": true,
    "primary": true,
    "converter": "composition",
    "converterArgs": {
      "entity_type": "entity_type",
      "entity_id": "entity_id",
      "sec_type": "sec_type"
    }
  }, {
    "id": "entity_type",
    "hidden": true
  }, {
    "id": "entity_id",
    "hidden": true
  }, {
    "id": "added_at",
    "format": "time",
    "text": "Added",
    "class": "one-line-date",
    "sortable": true
  }, {
    "id": "nice_mime_type",
    "hidden": true
  }, {
    "id": "mimeType",
    "text": false,
    "converter": "mimeIconConverter",
    "converterArgs": {
      "niceMimeColumn": "nice_mime_type"
    },
    "dataStyle": {
      "width": "40px"
    },
    "style": {
      "width": "40px"
    }
  }, {
    "id": "name",
    "text": "Name",
    "href": {
      "type": "file",
      "params": {
        "id": "entity_id"
      }
    },
    "sortable": true
  }, {
    "id": "user_id",
    "hidden": true
  }, {
    "id": "mail",
    "hidden": true
  }, {
    "id": "is_external_user",
    "hidden": true
  }, {
    "id": "thumbnail_photo",
    "text": false,
    "converter": "userImageConverter",
    "converterArgs": {
      "saas": "office365_onedrive"
    },
    "dataStyle": {
      "width": "40px"
    }
  }, {
    "id": "display_name",
    "text": "Creator",
    "converter": "userWithEmail",
    "converterArgs": {
      "userIdColumn": "user_id",
      "emailColumn": "mail",
      "isExternalColumn": "is_external_user"
    },
    "sortable": true
  }, {
    "id": "sec_type",
    "text": "Category",
    "converter": "exceptionsTypeConverter"
  }, {
    "id": "added_by",
    "text": "Added By",
    "converter": "avananUserInfoConverter",
    "optional": true,
    "defaultOptional": false
  }]
}