{
  "widgets": [{
    "type": "multi-widget",
    "size": "col-lg-6 col-md-12 col-sm-12 col-xs-12",
    "wrapper": {
      "type": "none"
    },
    "widgets": [{
      "type": "info",
      "logic": {
        "name": "fileInfoLogic",
        "mimeTypeColumn": "mimeType",
        "titleColumn": "name",
        "parentIdsColumn": "path_ids",
        "parentTitlesColumn": "path_names",
        "sizeColumn": "size",
        "pathConverter": {
          "type": "tree"
        },
        "linkColumn": "link_to_saas",
        "viewLinkConverter": "egnyteSaasLinkConverter",
        "widgets": [{
          "type": "actions",
          "logic": {
            "name": "remediationActionsLogic",
            "updateTick": null,
            "entityType": "egnyte_file"
          },
          "class": "file-info-actions-widget",
          "wrapper": {
            "type": "none"
          },
          "actions": [{
            "class": "btn btn-blue",
            "style": {
              "width": "100%"
            },
            "actionType": "cp_capsule_encrypt_file",
            "matchEntityType": true
          }]
        }],
        "metaInfo": {
          "type": "meta-info",
          "logic": {
            "name": "fileMetaInfoLogic",
            "beautifyKey": true,
            "advanced": true,
            "whiteList": ["uploaded_by", "update_time"],
            "blackList": ["path_ids", "path_names"],
            "extendedData": ["path_ids", "path_names", "mimeType", "nice_mime_type"]
          },
          "uuid": "917f4fa0-458b-4696-8d21-4dd88c5ad323",
          "size": "col-lg-6 col-md-12 col-sm-12 col-xm-12",
          "wrapper": {
            "type": "widget-panel",
            "title": "File meta data",
            "class": "avanan white-body overflow-auto",
            "filters": [{
              "type": "flag",
              "text": "Advanced",
              "value": "advanced",
              "local": true
            }]
          },
          "pair": {
            "class": "file-meta-data"
          }
        }
      },
      "class": "file-info",
      "bodyStyle": {
        "height": "230px"
      },
      "size": "col-lg-12 col-md-12 col-sm-12 col-xs-12",
      "wrapper": {
        "type": "widget-panel",
        "title": "File info",
        "class": "avanan white-body overflow-auto",
        "buttons": [{
          "id": "show-meta-info",
          "class": "btn-icon",
          "iconClass": "fa fa-external-link",
          "position": "right"
        }]
      }
    }, {
      "type": "data-table",
      "logic": {
        "name": "filePermissionLogic",
        "entityType": "egnyte_file"
      },
      "wrapper": {
        "type": "widget-panel",
        "title": "Permissions",
        "class": "avanan white-body overflow-auto"
      },
      "size": "col-lg-12 col-md-12 col-sm-12 col-xs-12",
      "class": "light medium-icons",
      "options": {
        "checkboxes": false
      },
      "columns": [{
        "id": "entity_id",
        "hidden": true,
        "primary": true
      }, {
        "id": "entity_type",
        "hidden": true
      }, {
        "id": "name",
        "text": "Name",
        "converter": "userWithEmailOrGroup",
        "converterArgs": {
          "userIdColumn": "entity_id",
          "emailColumn": "email",
          "entityTypeColumn": "entity_type"
        },
        "sortable": true
      }, {
        "id": "email",
        "hidden": true
      }, {
        "id": "role",
        "text": "Role",
        "type": "tag",
        "style": {
          "text-align": "center"
        },
        "dataStyle": {
          "text-align": "center"
        }
      }, {
        "id": "can_read",
        "text": "Read",
        "converter": "booleanCheckConverter"
      }, {
        "id": "can_del",
        "text": "Delete",
        "converter": "booleanCheckConverter"
      }, {
        "id": "can_edit_perm",
        "text": "Edit permissions",
        "converter": "booleanCheckConverter"
      }, {
        "id": "can_edit",
        "text": "Edit",
        "converter": "booleanCheckConverter"
      }, {
        "id": "can_create_link",
        "text": "Create Link",
        "converter": "booleanCheckConverter"
      }, {
        "id": "can_create_sub",
        "text": "Create Sub",
        "converter": "booleanCheckConverter"
      }, {
        "id": "can_copy",
        "text": "Copy",
        "converter": "booleanCheckConverter"
      }, {
        "id": "can_move",
        "text": "Move",
        "converter": "booleanCheckConverter"
      }, {
        "id": "can_rename",
        "text": "Rename",
        "converter": "booleanCheckConverter"
      }],
      "tags": {
        "owner": {
          "background": "#4ac598",
          "color": "#FFFFFF"
        },
        "full": {
          "background": "#f35428",
          "color": "#FFFFFF"
        },
        "editor": {
          "background": "#4c99a9",
          "color": "#FFFFFF"
        },
        "viewer": {
          "background": "#3ec291",
          "color": "#FFFFFF"
        }
      }
    }, {
      "type": "data-table",
      "logic": {
        "name": "fileVersionsLogic"
      },
      "wrapper": {
        "type": "widget-panel",
        "title": "Versions",
        "class": "avanan white-body overflow-auto"
      },
      "size": "col-lg-12 col-md-12 col-sm-12 col-xs-12",
      "class": "light medium-icons",
      "options": {
        "checkboxes": false
      },
      "columns": [{
        "id": "entity_id",
        "hidden": true,
        "primary": true
      }, {
        "id": "last_modified",
        "text": "Last modified",
        "format": "time"
      }, {
        "id": "version_file_id",
        "hidden": true
      }, {
        "id": "version_name",
        "text": "File",
        "href": {
          "type": "file",
          "params": {
            "id": "version_file_id"
          }
        }
      }, {
        "id": "is_current",
        "text": "Current Version?",
        "converter": "booleanCheckConverter"
      }]
    }]
  }, {
    "type": "reference",
    "reference": "scan-details",
    "size": "col-lg-6 col-md-12 col-sm-12 col-xs-12",
    "logic": {
      "entityType": "egnyte_file"
    }
  }, {
    "type": "data-table",
    "logic": {
      "name": "fileEventsListLogic",
      "timeColumnName": "created",
      "descriptionColumn": "source_path",
      "idColumn": "id",
      "imageColumn": "user_name",
      "checkboxColumn": "this_version",
      "entityType": "egnyte_file",
      "typesParams": {
        "drive": true
      }
    },
    "uuid": "f7eb0c1a-4520-42f7-89fe-249cd648d3cf",
    "size": "col-lg-12 col-md-12 col-sm-12 col-xs-12",
    "bodyStyle": {
      "height": "530px"
    },
    "class": "light high-light-new medium-icons",
    "wrapper": {
      "type": "widget-panel",
      "class": "avanan white-body",
      "title": "Live event log",
      "minimize": true,
      "filter": {
        "placeholder": "Filter events..."
      }
    },
    "options": {
      "pagesAround": 2,
      "pageSize": 100,
      "pagination": {
        "page": 1
      }
    },
    "columns": [{
      "id": "id",
      "hidden": true,
      "description": "Metacolumn that not exist in sql, used for dynamic rows"
    }, {
        "id": "user_id",
        "hidden": true
      },
      {
        "id": "created",
        "text": "Date/time",
        "format": "time",
        "class": "one-line-date"
      }, {
        "id": "user_email",
        "hidden": true
      }, {
        "id": "user_name",
        "text": "User",
        "converter": "userWithEmail",
        "converterArgs": {
          "userIdColumn": "user_id",
          "emailColumn": "user_email"
        }
      }, {
        "id": "action_source",
        "text": "Action Source"
      }, {
        "id": "action",
        "text": "Action"
      }, {
        "id": "target_path",
        "text": "Target",
        "converter": "fileOrFolderTitleConverter",
        "converterArgs": {
          "typeColumn": "item_type",
          "fileType": "file",
          "folderType": "folder",
          "fileIdColumn": "target_found_file_id",
          "fileTitleColumn": "target_found_file_name",
          "folderIdColumn": "target_found_folder_id",
          "folderTitleColumn": "target_found_folder_name"
        }
      }, {
        "id": "item_type",
        "hidden": true
      }, {
        "id": "target_found_file_id",
        "hidden": true
      }, {
        "id": "target_found_file_name",
        "hidden": true
      }, {
        "id": "target_found_folder_id",
        "hidden": true
      }, {
        "id": "target_found_folder_name",
        "hidden": true
      }, {
        "id": "this_version",
        "text": "This version",
        "converter": "booleanCheckConverter"
      }, {
        "id": "source_path",
        "text": "Source",
        "dataClass": "cell-div-width-100"
      }
    ]
  }, {
    "type": "reference",
    "reference": "entity-debug",
    "entityType": "egnyte_file"
  }]
}