{
  "widgets": [{
    "type": "multi-widget",
    "size": "col-lg-6 col-md-12 col-sm-12 col-xs-12",
    "wrapper": {
      "type": "none"
    },
    "widgets": [{
      "type": "info",
      "logic": {
        "name": "fileInfoLogic",
        "mimeTypeColumn": "mimeType",
        "titleColumn": "Name",
        "linkColumn": "parent_url_translated",
        "linkColumnTitle": "View in ShareFile",
        "staticViewLinkDeprecated": "https://secure.sharefile.com/Authentication/Login",
        "parentIdsColumn": "path",
        "parentTitlesColumn": "path_names",
        "quarantineStatusEntity": "sharefile_file",
        "pathConverter": {
          "type": "tree"
        },
        "widgets": [{
          "type": "actions",
          "logic": {
            "name": "remediationActionsLogic",
            "updateTick": null,
            "entityType": "sharefile_file"
          },
          "class": "file-info-actions-widget",
          "wrapper": {
            "type": "none"
          },
          "actions": [{
            "class": "btn btn-blue",
            "style": {
              "width": "100%"
            },
            "actionType": "cp_capsule_encrypt_file",
            "matchEntityType": true
          }, {
            "class": "btn btn-blue",
            "style": {
              "width": "100%"
            },
            "actionType": "sharefile_quarantine_file",
            "hiddenEntityAny": {
              "item_info.is_quarantined": true
            }
          }, {
            "class": "btn btn-blue",
            "style": {
              "width": "100%"
            },
            "actionType": "sharefile_quarantine_restore",
            "hiddenEntityAny": {
              "item_info.is_quarantined": {
                "operator": "not_equal",
                "value": true
              }
            }
          }]
        }],
        "metaInfo": {
          "type": "meta-info",
          "logic": {
            "name": "fileMetaInfoLogic",
            "beautifyKey": true,
            "advanced": true,
            "whiteList": ["CreatorNameShort", "VirusStatus", "update_time"],
            "blackList": ["Hash", "Parent", "user_id", "url", "StreamID", "entity_id", "path", "path_names", "url_translated", "parent_url_translated", "mimeType", "nice_mime_type"],
            "extendedData": ["path", "path_names", "url_translated", "parent_url_translated", "mimeType", "nice_mime_type"]
          },
          "uuid": "48e48b79-7e2b-4f0d-a0bb-6aa4d75d7009",
          "size": "col-lg-6 col-md-12 col-sm-12 col-xm-12",
          "wrapper": {
            "type": "widget-panel",
            "title": "File meta data",
            "class": "avanan white-body overflow-auto",
            "filters": [{
              "type": "flag",
              "text": "Advanced",
              "value": "advanced",
              "local": true
            }]
          },
          "pair": {
            "class": "file-meta-data"
          }
        }
      },
      "class": "file-info",
      "bodyStyle": {
        "height": "230px"
      },
      "size": "col-lg-12 col-md-12 col-sm-12 col-xs-12",
      "wrapper": {
        "type": "widget-panel",
        "title": "File info",
        "class": "avanan white-body overflow-auto",
        "buttons": [{
          "id": "show-meta-info",
          "class": "btn-icon",
          "iconClass": "fa fa-external-link",
          "position": "right"
        }]
      }
    }, {
      "type": "data-table",
      "logic": {
        "name": "filePermissionLogic",
        "entityType": "sharefile_file"
      },
      "wrapper": {
        "type": "widget-panel",
        "title": "Permissions",
        "class": "avanan white-body overflow-auto"
      },
      "size": "col-lg-12 col-md-12 col-sm-12 col-xs-12",
      "class": "light medium-icons",
      "bodyStyle": {
        "max-height": "300px"
      },
      "options": {
        "checkboxes": false
      },
      "columns": [{
        "id": "entity_id",
        "hidden": true,
        "primary": true
      }, {
        "id": "principal_type",
        "hidden": true
      }, {
        "id": "user_type",
        "hidden": true
      }, {
        "id": "entity_name",
        "text": "Username",
        "converter": "multiConverter",
        "converterArgs": {
          "converters": [{
            "converter": "userWithEmailOrGroup",
            "converterArgs": {
              "userIdColumn": "entity_id",
              "emailColumn": "user_email",
              "entityTypeColumn": "principal_type"
            }
          }, {
            "converter": "addClientMarkConverter"
          }]
        },
        "sortable": true
      }, {
        "id": "user_email",
        "hidden": true
      }, {
        "id": "is_owner",
        "text": "Is owner",
        "converter": "booleanCheckConverter"
      }, {
        "id": "can_download",
        "text": "Can download",
        "converter": "booleanCheckConverter"
      }, {
        "id": "can_upload",
        "text": "Can upload",
        "converter": "booleanCheckConverter"
      }, {
        "id": "can_delete",
        "text": "Can delete",
        "converter": "booleanCheckConverter"
      }, {
        "id": "can_view",
        "text": "Can view",
        "converter": "booleanCheckConverter"
      }, {
        "id": "can_manage_permissions",
        "text": "Can manage permissions",
        "converter": "booleanCheckConverter"
      }, {
        "id": "notify_on_download",
        "text": "Notify on download",
        "converter": "booleanCheckConverter"
      }, {
        "id": "notify_on_upload",
        "text": "Notify on upload",
        "converter": "booleanCheckConverter"
      }],
      "tags": {
        "owner": {
          "background": "#4ac598",
          "color": "#FFFFFF"
        },
        "share": {
          "background": "#f35428",
          "color": "#FFFFFF"
        },
        "writer": {
          "background": "#4c99a9",
          "color": "#FFFFFF"
        },
        "commenter": {
          "background": "#4c99a9",
          "color": "#FFFFFF"
        },
        "reader": {
          "background": "#3ec291",
          "color": "#FFFFFF"
        }
      }
    }, {
      "type": "data-table",
      "logic": {
        "name": "fileSharesLogic",
        "entityType": "sharefile_file"
      },
      "wrapper": {
        "type": "widget-panel",
        "title": "Shares",
        "class": "avanan white-body overflow-auto"
      },
      "size": "col-lg-12 col-md-12 col-sm-12 col-xs-12",
      "class": "light medium-icons",
      "options": {
        "checkboxes": false
      },
      "columns": [{
        "id": "entity_id",
        "hidden": true,
        "primary": true
      }, {
        "id": "user_id",
        "hidden": true,
        "primary": true
      }, {
        "id": "user_name",
        "text": "Username",
        "converter": "userWithEmail",
        "converterArgs": {
          "userIdColumn": "user_id",
          "emailColumn": "user_email",
          "noLinkAnonymous": true
        },
        "sortable": true
      }, {
        "id": "user_email",
        "hidden": true
      }, {
        "id": "expired",
        "text": "Expired",
        "converter": "booleanCheckConverter"
      }],
      "tags": {
        "owner": {
          "background": "#4ac598",
          "color": "#FFFFFF"
        },
        "share": {
          "background": "#f35428",
          "color": "#FFFFFF"
        },
        "writer": {
          "background": "#4c99a9",
          "color": "#FFFFFF"
        },
        "commenter": {
          "background": "#4c99a9",
          "color": "#FFFFFF"
        },
        "reader": {
          "background": "#3ec291",
          "color": "#FFFFFF"
        }
      }
    }, {
      "type": "data-table",
      "logic": {
        "name": "fileActivitySummaryLogic",
        "entityType": "sharefile_file"
      },
      "wrapper": {
        "type": "widget-panel",
        "title": "Activity Summary",
        "class": "avanan white-body overflow-auto"
      },
      "size": "col-lg-12 col-md-12 col-sm-12 col-xs-12",
      "class": "light medium-icons",
      "options": {
        "checkboxes": false
      },
      "columns": [{
        "id": "user_id",
        "hidden": true,
        "primary": true
      }, {
        "id": "user_email",
        "hidden": true
      }, {
        "id": "user_name",
        "text": "Username",
        "converter": "userWithEmail",
        "converterArgs": {
          "userIdColumn": "user_id",
          "emailColumn": "user_email",
          "noLinkAnonymous": true
        },
        "sortable": true
      }, {
        "id": "uploads_count",
        "text": "Uploads"
      }, {
        "id": "downloads_count",
        "text": "Downloads"
      }]
    }, {
      "type": "vector-map",
      "logic": {
        "name": "fileEventsMapLogic"
      },
      "size": "col-lg-12 col-md-12 col-sm-12 col-xs-12",
      "style": {
        "height": "400px"
      },
      "class": "pretty-zoom",
      "wrapper": {
        "type": "widget-panel",
        "title": "File access map",
        "class": "avanan white-body overflow-auto"
      }
    }]
  }, {
    "type": "reference",
    "reference": "scan-details",
    "size": "col-lg-6 col-md-12 col-sm-12 col-xs-12",
    "logic": {
      "entityType": "sharefile_file"
    },
    "style": {
      "height": "1017px"
    }
  }, {
    "type": "data-table",
    "logic": {
      "name": "fileEventsListLogic",
      "timeColumnName": "Date",
      "descriptionColumn": "Location",
      "idColumn": "id",
      "imageColumn": "user_name",
      "typesParams": {
        "drive": true
      },
      "entityType": "sharefile_file"
    },
    "size": "col-lg-12 col-md-12 col-sm-12 col-xs-12",
    "bodyStyle": {
      "height": "415px"
    },
    "class": "light",
    "wrapper": {
      "type": "widget-panel",
      "title": "Live event log",
      "class": "avanan white-body overflow-auto",
      "filter": {
        "placeholder": "Filter events..."
      }
    },
    "options": {
      "pagesAround": 2,
      "pageSize": 100000,
      "pagination": {
        "page": 1
      }
    },
    "columns": [{
      "id": "id",
      "hidden": true,
      "description": "Metacolumn that not exist in sql, used for dynamic rows"
    }, {
      "id": "entity_id",
      "hidden": true,
      "primary": true
    }, {
      "id": "user_id",
      "hidden": true
    }, {
      "id": "user_email",
      "hidden": true
    }, {
      "id": "Date",
      "text": "Date/time",
      "format": "time",
      "class": "one-line-date"
    }, {
      "id": "user_name",
      "text": "User",
      "converter": "userWithEmail",
      "converterArgs": {
        "userIdColumn": "user_id",
        "emailColumn": "user_email"
      }
    }, {
      "id": "doc_id",
      "hidden": true
    }, {
      "id": "Activity",
      "text": "Event",
      "converter": "eventType"
    }, {
      "id": "IPAddress",
      "text": "IP",
      "href": {
        "type": "ip",
        "params": {
          "id": "IPAddress"
        }
      }
    }, {
      "id": "Location",
      "text": "Location",
      "def": "",
      "dataClass": "cell-div-width-100"
    }]
  }, {
    "type": "reference",
    "reference": "entity-debug",
    "entityType": "sharefile_file"
  }]
}